<?xml version="1.0" encoding="utf-8"?>
<!-- Generator: Adobe Illustrator 18.0.0, SVG Export Plug-In . SVG Version: 6.00 Build 0)  -->
<!DOCTYPE svg PUBLIC "-//W3C//DTD SVG 1.1//EN" "http://www.w3.org/Graphics/SVG/1.1/DTD/svg11.dtd">
<svg version="1.1" id="Capa_1" xmlns="http://www.w3.org/2000/svg" xmlns:xlink="http://www.w3.org/1999/xlink" x="0px" y="0px"
	 viewBox="0 0 933 1025.5" enable-background="new 0 0 933 1025.5" xml:space="preserve">
<g>
	<g>
		<path fill="#2B2B2B" d="M100,49.5c-5.2,0-10.3,0.7-15.2,2C57.9,58.6,36.7,88,38.4,115.6c1.4,11.6,7.5,24.9,16.7,36.4
			c8.6,10.8,19.8,17.4,33.9,20.2c5.4,1.1,12.4,2.3,19.3,2.3c7.6,0,14.2-1.4,20.5-4.3c11.1-5.2,20.8-13.7,27.2-24.1
			c12.8-20.6,10.2-50.3-6.3-72.4C138.6,58.8,119.5,49.5,100,49.5z M158.3,134.2c-3.8,10.8-11.5,20.7-21.6,27.8
			c-8.9,6.3-18.3,9.3-28.6,9.3c-2.1,0-4.3-0.1-6.5-0.4c-13.9-1.6-28.3-4.7-39.1-15.4c-11.1-11-19.2-26.7-20.8-39.9
			c-1.4-21.9,13.5-47,33.9-57.2c7.4-3.7,15.8-5.6,24.4-5.6c15,0,29.7,5.6,40.4,15.5C157.9,84.3,165.8,113.3,158.3,134.2z"/>
		<path fill="#B2C217" d="M157.9,134.3c-3.8,10.8-11.5,20.7-21.6,27.8c-8.9,6.3-18.3,9.3-28.6,9.3c-2.1,0-4.3-0.1-6.5-0.4
			c-13.9-1.6-28.3-4.7-39.1-15.4c-11.1-11-19.2-26.7-20.8-39.9c-1.4-21.9,13.5-47,33.9-57.2c7.3-3.7,15.8-5.6,24.4-5.6
			c15,0,29.7,5.6,40.4,15.5C157.4,84.5,165.3,113.4,157.9,134.3z"/>
		<path fill="#2B2B2B" d="M180.9,113c-1.7-22.4-7.2-39.4-17-51.9c-10.7-13.7-26.6-23.9-44.8-28.6c-6-1.4-12.1-2.1-18.1-2.1
			c-12,0-23.6,2.8-34.6,8.4c-11.1,5.6-30.9,17.8-39,36.1c-7.5,16.9-9.7,36.1-5.9,51.2c3.5,13.7,11.6,27.5,22.9,38.8
			c16.4,16.4,38.9,25.8,61.8,25.8l0,0c7.1,0,14.1-0.9,20.9-2.7C160.3,179.3,183.4,147,180.9,113z M177.9,121.5
			c-0.4,7.5-2.8,16.2-7.2,26.1c-6.6,14.8-17.6,26.1-31.8,32.7c-10.1,4.7-21,7.1-32.5,7.1c-17.8,0-35.5-5.9-49.9-16.5
			c-10.8-8-19.8-18.6-25.9-30.8c-7.6-15.1-9-30.5-4.4-49.9c2.8-11.8,6.5-19.7,12.5-26.3c5.6-6.2,12.8-12.1,21.3-17.5
			c13.2-8.3,27.1-12.6,41.5-12.6c5.6,0,11.3,0.7,16.9,1.9c15.6,4.1,29.3,12.2,39.7,23.5c9.2,10,15.1,23.4,18.1,40.9
			C177.2,106.5,178.3,114.2,177.9,121.5z"/>
		<path fill="#2B2B2B" d="M108.7,112.3c-0.1-8.2-0.2-16.9-0.2-26.4c3.8,0.4,8.7,1.9,11.3,6.2c0.3,0.5,0.8,0.8,1.4,0.8
			c0.6,0,1.2-0.4,1.5-0.9c0.3-0.5,0.2-1-0.1-1.5c-2.5-4-7.5-6.6-14.2-7.5v-2.6c0-1.5,0-3,0-4.5c0-0.4-0.1-0.8-0.4-1.1
			c-0.3-0.3-0.7-0.5-1.2-0.5c-0.8,0-1.6,0.6-1.6,1.6c0,1.5,0,2.9,0,4.4v2.5c-0.4,0-0.8,0-1.1,0c-2.5,0-5,0.2-7.4,0.7l0-7.2
			c0-0.4-0.2-0.8-0.4-1.1c-0.3-0.3-0.7-0.5-1.2-0.5c-0.8,0-1.6,0.5-1.6,1.6l0,8C87.4,86,83,89.2,81.1,93c-1.5,2.8-1.6,6-0.4,9.4
			c2.4,6.7,8,8.9,12.7,10.1l-0.1,25.3c-6.1-1.4-10.2-5.3-12.4-11.9c-0.2-0.7-0.8-1.1-1.6-1.1c-0.6,0-1.1,0.3-1.4,0.7
			c-0.3,0.4-0.3,0.9-0.2,1.3c2.7,8.2,7.8,12.9,15.6,14.3l0,14.6c0,0.4,0.2,0.8,0.4,1.1c0.3,0.3,0.7,0.5,1.2,0.5
			c0.8,0,1.6-0.5,1.6-1.6l0-14.2c1,0.1,1.9,0.1,2.9,0.1c1.4,0,2.9-0.1,4.4-0.2c0.8-0.1,1.6-0.2,2.4-0.3l0,0.9
			c0.2,4.4,0.3,8.8,0.6,13.3c0.1,1,0.9,1.6,1.7,1.6c0.5,0,0.9-0.2,1.2-0.5c0.3-0.3,0.4-0.7,0.4-1.1c-0.2-5-0.4-9.9-0.6-14.9
			c3.5-1,9.6-3.3,12.4-8.3c1.5-2.6,1.8-5.5,0.8-8.7C120.7,116.1,114.5,113.7,108.7,112.3z M109.4,137.3c-0.3-7.8-0.5-14.9-0.6-21.8
			c1.8,0.5,3.2,1.1,4.4,1.7c3.2,1.8,5.6,4.6,6.4,7.5c0.6,2.2,0.2,4.5-1,6.5C116.7,134.2,113.8,136.2,109.4,137.3z M102.3,111.1
			c-1.9-0.3-3.9-0.7-5.7-1.1l0-23.2c2.7-0.7,5.7-1.1,8.6-1.1h0c0,9.3,0.1,17.8,0.2,25.9C104.4,111.5,103.4,111.3,102.3,111.1z
			 M96.6,113.2c1.3,0.2,2.6,0.4,3.9,0.7c1.6,0.3,3.3,0.5,4.9,0.8c0.1,7.5,0.4,15.1,0.7,23.2c-1.2,0.2-2.3,0.3-3.4,0.4
			c-1.1,0.1-2.1,0.1-3.1,0.1c-1,0-2.1,0-3-0.1L96.6,113.2z M93.4,87.9l0,21.2c-0.4-0.1-0.8-0.2-1.1-0.4c-3.1-1.2-7.1-4-8.5-7.8
			c-0.7-2.1-0.5-4.2,0.7-6.2C86.4,91.3,90.3,89.2,93.4,87.9z"/>
		<path fill="#2B2B2B" d="M72.9,71c-0.3,0-0.6,0.1-0.9,0.3c-10.9,7-18.2,17.9-20.4,30.6c-0.1,0.5,0,1,0.3,1.4
			c0.4,0.4,0.9,0.7,1.4,0.7c0.7,0,1.3-0.5,1.4-1.2c2.1-11.9,8.8-22.1,18.9-28.6c0.6-0.4,0.9-1.1,0.7-1.8C74.2,71.6,73.6,71,72.9,71z
			"/>
		<path fill="#242424" d="M79.4,70.3c0.2-0.3,0.4-0.7,0.4-1.1c0-0.8-0.5-1.6-1.6-1.6c-0.5,0-0.9,0.2-1.2,0.5
			c-0.2,0.3-0.4,0.7-0.4,1.1c0,0.8,0.5,1.6,1.6,1.6C78.7,70.8,79.1,70.7,79.4,70.3z"/>
	</g>
	<g>
		<path fill="#2B2B2B" d="M283.1,49.5c-5.2,0-10.3,0.7-15.2,2c-26.9,7.1-48.1,36.5-46.3,64.2c1.4,11.6,7.5,24.9,16.7,36.4
			c8.6,10.8,19.8,17.4,34,20.2c5.3,1.1,12.4,2.3,19.3,2.3c7.6,0,14.2-1.4,20.5-4.3c11.1-5.2,20.8-13.7,27.2-24.1
			c12.8-20.6,10.2-50.3-6.3-72.4C321.7,58.8,302.6,49.5,283.1,49.5z M341.4,134.2c-3.8,10.8-11.5,20.7-21.6,27.8
			c-8.9,6.3-18.3,9.3-28.6,9.3c-2.1,0-4.3-0.1-6.5-0.4c-13.9-1.6-28.3-4.7-39.1-15.4c-11.1-11-19.2-26.7-20.9-39.9
			c-1.4-21.9,13.5-47,33.9-57.2c7.3-3.7,15.8-5.6,24.4-5.6c15,0,29.7,5.6,40.4,15.5C340.9,84.3,348.8,113.3,341.4,134.2z"/>
		<path fill="#B2C217" d="M340.9,134.3c-3.8,10.8-11.5,20.7-21.6,27.8c-8.9,6.3-18.3,9.3-28.6,9.3c-2.1,0-4.3-0.1-6.5-0.4
			c-13.9-1.6-28.3-4.7-39.1-15.4c-11-11-19.2-26.7-20.8-39.9c-1.4-21.9,13.5-47,33.9-57.2c7.3-3.7,15.8-5.6,24.4-5.6
			c15,0,29.7,5.6,40.4,15.5C340.5,84.5,348.3,113.4,340.9,134.3z"/>
		<path fill="#2B2B2B" d="M363.9,113c-1.7-22.4-7.3-39.4-17-51.9c-10.7-13.7-26.6-23.9-44.8-28.6c-6-1.4-12.1-2.1-18.1-2.1
			c-12,0-23.6,2.8-34.6,8.4c-11.1,5.6-30.9,17.8-39,36.1c-7.5,16.9-9.7,36.1-5.9,51.2c3.5,13.7,11.6,27.5,22.9,38.8
			c16.4,16.4,38.9,25.8,61.8,25.8l0,0c7.1,0,14.1-0.9,20.9-2.7C343.4,179.3,366.5,147,363.9,113z M360.9,121.5
			c-0.4,7.5-2.8,16.2-7.2,26.1c-6.6,14.8-17.6,26.1-31.8,32.7c-10.1,4.7-21,7.1-32.5,7.1c-17.8,0-35.5-5.9-49.9-16.5
			c-10.8-8-19.8-18.6-25.9-30.8c-7.6-15.1-9-30.5-4.4-49.9c2.8-11.8,6.5-19.7,12.5-26.3c5.6-6.2,12.8-12.1,21.3-17.5
			c13.2-8.3,27.1-12.6,41.5-12.6c5.6,0,11.3,0.7,16.9,1.9c15.6,4.1,29.3,12.2,39.7,23.5c9.2,10,15.1,23.4,18.1,40.9
			C360.2,106.5,361.3,114.2,360.9,121.5z"/>
		<path fill="#2B2B2B" d="M291.8,112.3c-0.1-8.2-0.2-16.9-0.2-26.4c3.8,0.4,8.7,1.9,11.4,6.2c0.3,0.5,0.8,0.8,1.3,0.8
			c0.6,0,1.2-0.4,1.5-0.9c0.3-0.5,0.2-1-0.1-1.5c-2.5-4-7.5-6.6-14.2-7.5v-2.6c0-1.5,0-3,0-4.5c0-0.4-0.1-0.8-0.4-1.1
			c-0.3-0.3-0.7-0.5-1.2-0.5c-0.8,0-1.6,0.6-1.6,1.6c0,1.5,0,2.9,0,4.4v2.5c-0.4,0-0.8,0-1.1,0c-2.5,0-5,0.2-7.4,0.7l0-7.2
			c0-0.4-0.1-0.8-0.4-1.1c-0.3-0.3-0.7-0.5-1.2-0.5c-0.8,0-1.6,0.5-1.6,1.6l0,8c-6,1.8-10.4,4.9-12.4,8.8c-1.5,2.8-1.6,6-0.4,9.4
			c2.4,6.7,8,8.9,12.7,10.1l-0.1,25.3c-6.1-1.4-10.2-5.3-12.4-11.9c-0.2-0.7-0.8-1.1-1.6-1.1c-0.6,0-1.1,0.3-1.4,0.7
			c-0.3,0.4-0.3,0.9-0.2,1.3c2.7,8.2,7.8,12.9,15.6,14.3l0,14.6c0,0.4,0.2,0.8,0.4,1.1c0.3,0.3,0.7,0.5,1.2,0.5
			c0.8,0,1.6-0.5,1.6-1.6l0-14.2c1,0.1,1.9,0.1,2.9,0.1c1.4,0,2.9-0.1,4.4-0.2c0.8-0.1,1.6-0.2,2.4-0.3l0,0.9
			c0.2,4.4,0.4,8.8,0.6,13.3c0.1,1,0.9,1.6,1.7,1.6c0.5,0,0.9-0.2,1.2-0.5c0.3-0.3,0.4-0.7,0.4-1.1c-0.2-5-0.4-9.9-0.6-14.9
			c3.5-1,9.6-3.3,12.4-8.3c1.5-2.6,1.8-5.5,0.8-8.7C303.7,116.1,297.6,113.7,291.8,112.3z M292.4,137.3c-0.3-7.8-0.5-14.9-0.6-21.8
			c1.8,0.5,3.2,1.1,4.4,1.7c3.2,1.8,5.6,4.6,6.4,7.5c0.6,2.2,0.3,4.5-1,6.5C299.8,134.2,296.8,136.2,292.4,137.3z M285.4,111.1
			c-1.9-0.3-3.8-0.7-5.7-1.1l0-23.2c2.7-0.7,5.7-1.1,8.5-1.1l0,0c0,9.3,0.1,17.8,0.2,25.9C287.4,111.5,286.4,111.3,285.4,111.1z
			 M279.7,113.2c1.3,0.2,2.6,0.4,3.9,0.7c1.6,0.3,3.3,0.5,4.9,0.8c0.1,7.5,0.4,15.1,0.7,23.2c-1.1,0.2-2.3,0.3-3.4,0.4
			c-1,0.1-2.1,0.1-3.1,0.1c-1,0-2.1,0-3-0.1L279.7,113.2z M276.5,87.9l0,21.2c-0.4-0.1-0.8-0.2-1.1-0.4c-3.1-1.2-7.1-4-8.5-7.8
			c-0.7-2.1-0.5-4.2,0.6-6.2C269.4,91.3,273.4,89.2,276.5,87.9z"/>
		<path fill="#2B2B2B" d="M256,71c-0.3,0-0.6,0.1-0.8,0.3c-10.9,7-18.2,17.9-20.4,30.6c-0.1,0.5,0,1,0.4,1.4
			c0.3,0.4,0.9,0.7,1.4,0.7c0.7,0,1.3-0.5,1.4-1.2c2.1-11.9,8.8-22.1,18.9-28.6c0.6-0.4,0.9-1.1,0.7-1.8C257.3,71.6,256.7,71,256,71
			z"/>
		<path fill="#242424" d="M262.4,70.3c0.2-0.3,0.4-0.7,0.4-1.1c0-0.8-0.5-1.6-1.6-1.6c-0.5,0-0.9,0.2-1.2,0.5
			c-0.2,0.3-0.4,0.7-0.4,1.1c0,0.8,0.5,1.6,1.6,1.6C261.7,70.8,262.1,70.7,262.4,70.3z"/>
	</g>
	<g>
		<path fill="#2B2B2B" d="M466.1,49.5c-5.2,0-10.3,0.7-15.2,2c-26.9,7.1-48.1,36.5-46.3,64.2c1.4,11.6,7.5,24.9,16.7,36.4
			c8.6,10.8,19.7,17.4,33.9,20.2c5.4,1.1,12.4,2.3,19.3,2.3c7.6,0,14.3-1.4,20.5-4.3c11.1-5.2,20.8-13.7,27.2-24.1
			c12.7-20.6,10.2-50.3-6.3-72.4C504.7,58.8,485.6,49.5,466.1,49.5z M524.4,134.2c-3.8,10.8-11.5,20.7-21.6,27.8
			c-8.9,6.3-18.3,9.3-28.6,9.3c-2.1,0-4.3-0.1-6.5-0.4c-13.9-1.6-28.3-4.7-39.1-15.4c-11-11-19.2-26.7-20.8-39.9
			c-1.4-21.9,13.5-47,33.9-57.2c7.3-3.7,15.8-5.6,24.4-5.6c14.9,0,29.7,5.6,40.4,15.5C524,84.3,531.8,113.3,524.4,134.2z"/>
		<path fill="#B2C217" d="M523.9,134.3c-3.8,10.8-11.5,20.7-21.6,27.8c-9,6.3-18.3,9.3-28.6,9.3c-2.1,0-4.3-0.1-6.5-0.4
			c-13.9-1.6-28.3-4.7-39.1-15.4c-11.1-11-19.2-26.7-20.8-39.9c-1.4-21.9,13.5-47,33.9-57.2c7.4-3.7,15.8-5.6,24.4-5.6
			c15,0,29.7,5.6,40.4,15.5C523.5,84.5,531.4,113.4,523.9,134.3z"/>
		<path fill="#2B2B2B" d="M547,113c-1.7-22.4-7.2-39.4-17-51.9c-10.7-13.7-26.6-23.9-44.8-28.6c-6-1.4-12.1-2.1-18.1-2.1
			c-12,0-23.6,2.8-34.6,8.4c-11.1,5.6-30.9,17.8-39,36.1c-7.5,16.9-9.7,36.1-5.9,51.2c3.5,13.7,11.6,27.5,22.9,38.8
			c16.4,16.4,38.9,25.8,61.8,25.8l0,0c7.1,0,14.1-0.9,20.9-2.7C526.4,179.3,549.5,147,547,113z M544,121.5
			c-0.4,7.5-2.8,16.2-7.2,26.1c-6.6,14.8-17.6,26.1-31.8,32.7c-10.1,4.7-21,7.1-32.5,7.1c-17.8,0-35.5-5.9-49.9-16.5
			c-10.8-8-19.8-18.6-25.9-30.8c-7.6-15.1-9-30.5-4.4-49.9c2.8-11.8,6.5-19.7,12.5-26.3c5.6-6.2,12.8-12.1,21.3-17.5
			c13.2-8.3,27.1-12.6,41.5-12.6c5.6,0,11.3,0.7,16.9,1.9c15.6,4.1,29.3,12.2,39.7,23.5c9.2,10,15.1,23.4,18.1,40.9
			C543.3,106.5,544.4,114.2,544,121.5z"/>
		<path fill="#2B2B2B" d="M474.8,112.3c-0.1-8.2-0.2-16.9-0.2-26.4c3.8,0.4,8.7,1.9,11.4,6.2c0.3,0.5,0.8,0.8,1.3,0.8
			c0.6,0,1.2-0.4,1.5-0.9c0.3-0.5,0.2-1-0.1-1.5c-2.5-4-7.5-6.6-14.2-7.5v-2.6c0-1.5,0-3,0-4.5c0-0.4-0.1-0.8-0.4-1.1
			c-0.3-0.3-0.7-0.5-1.2-0.5c-0.8,0-1.6,0.6-1.6,1.6c0,1.5,0,2.9,0,4.4v2.5c-0.4,0-0.8,0-1.2,0c-2.5,0-5,0.2-7.4,0.7l0-7.2
			c0-0.4-0.2-0.8-0.4-1.1c-0.3-0.3-0.7-0.5-1.2-0.5c-0.8,0-1.6,0.5-1.6,1.6l0,8c-6,1.8-10.4,4.9-12.4,8.8c-1.5,2.8-1.6,6-0.4,9.4
			c2.4,6.7,8,8.9,12.7,10.1l-0.1,25.3c-6.2-1.4-10.2-5.3-12.4-11.9c-0.2-0.7-0.8-1.1-1.6-1.1c-0.6,0-1.1,0.3-1.4,0.7
			c-0.3,0.4-0.3,0.9-0.2,1.3c2.7,8.2,7.8,12.9,15.6,14.3l0,14.6c0,0.4,0.1,0.8,0.4,1.1c0.3,0.3,0.7,0.5,1.2,0.5
			c0.8,0,1.6-0.5,1.6-1.6l0-14.2c0.9,0.1,1.9,0.1,2.9,0.1c1.4,0,2.8-0.1,4.4-0.2c0.8-0.1,1.6-0.2,2.4-0.3l0,0.9
			c0.2,4.4,0.3,8.8,0.6,13.3c0,1,0.9,1.6,1.7,1.6c0.5,0,0.9-0.2,1.2-0.5c0.3-0.3,0.4-0.7,0.4-1.1c-0.2-5-0.4-9.9-0.6-14.9
			c3.5-1,9.6-3.3,12.4-8.3c1.5-2.6,1.8-5.5,0.8-8.7C486.8,116.1,480.6,113.7,474.8,112.3z M475.5,137.3c-0.3-7.8-0.5-14.9-0.6-21.8
			c1.8,0.5,3.2,1.1,4.4,1.7c3.2,1.8,5.6,4.6,6.4,7.5c0.6,2.2,0.2,4.5-1,6.5C482.8,134.2,479.8,136.2,475.5,137.3z M468.4,111.1
			c-1.9-0.3-3.9-0.7-5.7-1.1l0-23.2c2.7-0.7,5.7-1.1,8.5-1.1h0c0,9.3,0.1,17.8,0.2,25.9C470.5,111.5,469.4,111.3,468.4,111.1z
			 M462.7,113.2c1.3,0.2,2.6,0.4,3.9,0.7c1.7,0.3,3.3,0.5,4.9,0.8c0.1,7.5,0.4,15.1,0.7,23.2c-1.2,0.2-2.3,0.3-3.4,0.4
			c-1.1,0.1-2.1,0.1-3.1,0.1c-1,0-2.1,0-3-0.1L462.7,113.2z M459.5,87.9l0,21.2c-0.4-0.1-0.8-0.2-1.1-0.4c-3.1-1.2-7.1-4-8.5-7.8
			c-0.7-2.1-0.5-4.2,0.6-6.2C452.5,91.3,456.4,89.2,459.5,87.9z"/>
		<path fill="#2B2B2B" d="M439,71c-0.3,0-0.6,0.1-0.8,0.3c-10.9,7-18.2,17.9-20.4,30.6c-0.1,0.5,0,1,0.4,1.4
			c0.3,0.4,0.9,0.7,1.4,0.7c0.7,0,1.3-0.5,1.4-1.2c2.1-11.9,8.8-22.1,18.9-28.6c0.6-0.4,0.9-1.1,0.7-1.8C440.3,71.6,439.7,71,439,71
			z"/>
		<path fill="#242424" d="M445.5,70.3c0.3-0.3,0.4-0.7,0.4-1.1c0-0.8-0.5-1.6-1.6-1.6c-0.5,0-0.9,0.2-1.2,0.5
			c-0.3,0.3-0.4,0.7-0.4,1.1c0,0.8,0.5,1.6,1.6,1.6C444.8,70.8,445.2,70.7,445.5,70.3z"/>
	</g>
	<g>
		<path fill="#2B2B2B" d="M649.1,49.5c-5.2,0-10.3,0.7-15.2,2c-26.9,7.1-48.1,36.5-46.3,64.2c1.4,11.6,7.5,24.9,16.7,36.4
			c8.6,10.8,19.7,17.4,34,20.2c5.3,1.1,12.4,2.3,19.3,2.3c7.5,0,14.2-1.4,20.5-4.3c11.1-5.2,20.8-13.7,27.2-24.1
			c12.7-20.6,10.2-50.3-6.3-72.4C687.8,58.8,668.7,49.5,649.1,49.5z M707.5,134.2c-3.9,10.8-11.5,20.7-21.6,27.8
			c-8.9,6.3-18.3,9.3-28.5,9.3c-2.1,0-4.3-0.1-6.5-0.4c-13.9-1.6-28.3-4.7-39.1-15.4c-11-11-19.2-26.7-20.8-39.9
			c-1.4-21.9,13.5-47,33.9-57.2c7.3-3.7,15.8-5.6,24.4-5.6c15,0,29.7,5.6,40.4,15.5C707,84.3,714.9,113.3,707.5,134.2z"/>
		<path fill="#B2C217" d="M707,134.3c-3.8,10.8-11.5,20.7-21.6,27.8c-8.9,6.3-18.3,9.3-28.6,9.3c-2.1,0-4.3-0.1-6.5-0.4
			c-13.9-1.6-28.3-4.7-39.1-15.4c-11.1-11-19.2-26.7-20.8-39.9c-1.4-21.9,13.5-47,33.9-57.2c7.3-3.7,15.8-5.6,24.4-5.6
			c14.9,0,29.7,5.6,40.4,15.5C706.6,84.5,714.4,113.4,707,134.3z"/>
		<path fill="#B2C217" d="M891.6,134.3c-3.8,10.8-11.5,20.7-21.6,27.8c-8.9,6.3-18.3,9.3-28.6,9.3c-2.1,0-4.3-0.1-6.5-0.4
			c-13.9-1.6-28.3-4.7-39.1-15.4c-11.1-11-19.2-26.7-20.8-39.9c-1.4-21.9,13.5-47,33.9-57.2c7.3-3.7,15.8-5.6,24.4-5.6
			c14.9,0,29.7,5.6,40.4,15.5C891.1,84.5,899,113.4,891.6,134.3z"/>
		<path fill="#2B2B2B" d="M730,113c-1.7-22.4-7.2-39.4-17-51.9c-10.7-13.7-26.6-23.9-44.8-28.6c-6-1.4-12.1-2.1-18.1-2.1
			c-12,0-23.6,2.8-34.6,8.4c-11.1,5.6-30.9,17.8-39,36.1c-7.5,16.9-9.7,36.1-5.9,51.2c3.5,13.7,11.6,27.5,22.9,38.8
			c16.4,16.4,38.9,25.8,61.8,25.8l0,0c7.1,0,14.1-0.9,20.9-2.7C709.5,179.3,732.6,147,730,113z M727.1,121.5
			c-0.4,7.5-2.8,16.2-7.2,26.1c-6.6,14.8-17.6,26.1-31.8,32.7c-10.1,4.7-21,7.1-32.5,7.1c-17.8,0-35.5-5.9-49.9-16.5
			c-10.8-8-19.8-18.6-25.9-30.8c-7.6-15.1-9-30.5-4.4-49.9c2.8-11.8,6.5-19.7,12.5-26.3c5.6-6.2,12.8-12.1,21.3-17.5
			c13.2-8.3,27.1-12.6,41.5-12.6c5.6,0,11.3,0.7,16.9,1.9c15.6,4.1,29.3,12.2,39.7,23.5c9.2,10,15.1,23.4,18.1,40.9
			C726.3,106.5,727.4,114.2,727.1,121.5z"/>
		<path fill="#2B2B2B" d="M657.9,112.3c-0.1-8.2-0.2-16.9-0.2-26.4c3.7,0.4,8.7,1.9,11.4,6.2c0.3,0.5,0.8,0.8,1.3,0.8
			c0.6,0,1.2-0.4,1.5-0.9c0.3-0.5,0.2-1-0.1-1.5c-2.5-4-7.5-6.6-14.2-7.5v-2.6c0-1.5,0-3,0-4.5c0-0.4-0.1-0.8-0.4-1.1
			c-0.3-0.3-0.7-0.5-1.2-0.5c-0.8,0-1.6,0.6-1.7,1.6c0,1.5,0,2.9,0,4.4v2.5c-0.4,0-0.8,0-1.2,0c-2.5,0-5,0.2-7.4,0.7l0-7.2
			c0-0.4-0.2-0.8-0.4-1.1c-0.3-0.3-0.7-0.5-1.2-0.5c-0.8,0-1.6,0.5-1.6,1.6l0,8c-6,1.8-10.4,4.9-12.4,8.8c-1.5,2.8-1.6,6-0.4,9.4
			c2.4,6.7,8,8.9,12.7,10.1l-0.1,25.3c-6.1-1.4-10.2-5.3-12.4-11.9c-0.2-0.7-0.8-1.1-1.6-1.1c-0.6,0-1.1,0.3-1.4,0.7
			c-0.3,0.4-0.3,0.9-0.2,1.3c2.7,8.2,7.8,12.9,15.5,14.3l0,14.6c0,0.4,0.2,0.8,0.4,1.1c0.3,0.3,0.7,0.5,1.2,0.5
			c0.8,0,1.6-0.5,1.6-1.6l0-14.2c1,0.1,1.9,0.1,2.9,0.1c1.4,0,2.9-0.1,4.4-0.2c0.8-0.1,1.6-0.2,2.4-0.3l0,0.9
			c0.2,4.4,0.3,8.8,0.6,13.3c0.1,1,0.9,1.6,1.7,1.6c0.5,0,0.9-0.2,1.2-0.5c0.3-0.3,0.4-0.7,0.4-1.1c-0.2-5-0.4-9.9-0.6-14.9
			c3.5-1,9.6-3.3,12.4-8.3c1.5-2.6,1.7-5.5,0.8-8.7C669.8,116.1,663.7,113.7,657.9,112.3z M658.5,137.3c-0.3-7.8-0.5-14.9-0.6-21.8
			c1.8,0.5,3.2,1.1,4.4,1.7c3.2,1.8,5.6,4.6,6.4,7.5c0.6,2.2,0.2,4.5-1,6.5C665.9,134.2,662.9,136.2,658.5,137.3z M651.4,111.1
			c-1.9-0.3-3.9-0.7-5.7-1.1l0-23.2c2.8-0.7,5.7-1.1,8.6-1.1h0c0,9.3,0.1,17.8,0.2,25.9C653.5,111.5,652.5,111.3,651.4,111.1z
			 M645.8,113.2c1.3,0.2,2.6,0.4,3.9,0.7c1.7,0.3,3.3,0.5,4.9,0.8c0.2,7.5,0.4,15.1,0.7,23.2c-1.2,0.2-2.3,0.3-3.4,0.4
			c-1.1,0.1-2.1,0.1-3.1,0.1c-1,0-2.1,0-3.1-0.1L645.8,113.2z M642.6,87.9l0,21.2c-0.4-0.1-0.8-0.2-1.1-0.4c-3.1-1.2-7.1-4-8.5-7.8
			c-0.7-2.1-0.5-4.2,0.6-6.2C635.5,91.3,639.5,89.2,642.6,87.9z"/>
		<path fill="#2B2B2B" d="M622.1,71c-0.3,0-0.6,0.1-0.9,0.3c-10.9,7-18.2,17.9-20.4,30.6c-0.1,0.5,0,1,0.4,1.4
			c0.4,0.4,0.9,0.7,1.4,0.7c0.7,0,1.3-0.5,1.4-1.2c2.1-11.9,8.8-22.1,18.9-28.6c0.6-0.4,0.9-1.1,0.7-1.8
			C623.4,71.6,622.8,71,622.1,71z"/>
		<path fill="#242424" d="M628.5,70.3c0.3-0.3,0.4-0.7,0.4-1.1c0-0.8-0.5-1.6-1.6-1.6c-0.5,0-0.9,0.2-1.2,0.5
			c-0.3,0.3-0.4,0.7-0.4,1.1c0,0.8,0.5,1.6,1.6,1.6C627.8,70.8,628.2,70.7,628.5,70.3z"/>
	</g>
	<g>
		<path fill="#2B2B2B" d="M832.2,49.5c-5.2,0-10.3,0.7-15.2,2c-26.9,7.1-48.1,36.5-46.3,64.2c1.4,11.6,7.5,24.9,16.7,36.4
			c8.6,10.8,19.8,17.4,34,20.2c5.3,1.1,12.4,2.3,19.3,2.3c7.6,0,14.3-1.4,20.5-4.3c11.1-5.2,20.8-13.7,27.2-24.1
			c12.7-20.6,10.2-50.3-6.3-72.4C870.8,58.8,851.7,49.5,832.2,49.5z M890.5,134.2c-3.8,10.8-11.5,20.7-21.6,27.8
			c-8.9,6.3-18.3,9.3-28.6,9.3c-2.1,0-4.3-0.1-6.5-0.4c-13.9-1.6-28.3-4.7-39.1-15.4c-11.1-11-19.2-26.7-20.8-39.9
			c-1.4-21.9,13.5-47,33.9-57.2c7.3-3.7,15.8-5.6,24.4-5.6c15,0,29.7,5.6,40.4,15.5C890.1,84.3,897.9,113.3,890.5,134.2z"/>
		<path fill="#2B2B2B" d="M913.1,113c-1.7-22.4-7.2-39.4-17-51.9c-10.7-13.7-26.6-23.9-44.8-28.6c-6-1.4-12.1-2.1-18.1-2.1
			c-12,0-23.6,2.8-34.6,8.4c-11.1,5.6-30.9,17.8-39,36.1c-7.5,16.9-9.7,36.1-5.9,51.2c3.5,13.7,11.6,27.5,22.9,38.8
			c16.4,16.4,38.9,25.8,61.8,25.8l0,0c7.1,0,14.1-0.9,20.9-2.7C892.5,179.3,915.6,147,913.1,113z M910.1,121.5
			c-0.4,7.5-2.8,16.2-7.2,26.1c-6.6,14.8-17.6,26.1-31.8,32.7c-10.1,4.7-21,7.1-32.5,7.1c-17.8,0-35.5-5.9-49.9-16.5
			c-10.8-8-19.8-18.6-25.9-30.8c-7.6-15.1-9-30.5-4.4-49.9c2.8-11.8,6.5-19.7,12.5-26.3c5.6-6.2,12.8-12.1,21.3-17.5
			c13.2-8.3,27.1-12.6,41.5-12.6c5.6,0,11.3,0.7,16.9,1.9c15.6,4.1,29.3,12.2,39.7,23.5c9.2,10,15.1,23.4,18.1,40.9
			C909.4,106.5,910.5,114.2,910.1,121.5z"/>
		<path fill="#2B2B2B" d="M840.9,112.3c-0.1-8.2-0.2-16.9-0.2-26.4c3.8,0.4,8.7,1.9,11.4,6.2c0.3,0.5,0.8,0.8,1.3,0.8
			c0.6,0,1.2-0.4,1.5-0.9c0.3-0.5,0.2-1-0.1-1.5c-2.5-4-7.5-6.6-14.2-7.5v-2.6c0-1.5,0-3,0-4.5c0-0.4-0.2-0.8-0.4-1.1
			c-0.3-0.3-0.7-0.5-1.2-0.5c-0.8,0-1.6,0.6-1.6,1.6c0,1.5,0,2.9,0,4.4v2.5c-0.4,0-0.8,0-1.2,0c-2.5,0-5,0.2-7.4,0.7l0-7.2
			c0-0.4-0.2-0.8-0.4-1.1c-0.3-0.3-0.7-0.5-1.2-0.5c-0.8,0-1.6,0.5-1.6,1.6l0,8c-6,1.8-10.4,4.9-12.4,8.8c-1.5,2.8-1.6,6-0.4,9.4
			c2.4,6.7,8,8.9,12.7,10.1l-0.1,25.3c-6.1-1.4-10.2-5.3-12.4-11.9c-0.2-0.7-0.8-1.1-1.6-1.1c-0.6,0-1.1,0.3-1.4,0.7
			c-0.3,0.4-0.3,0.9-0.2,1.3c2.7,8.2,7.8,12.9,15.5,14.3l0,14.6c0,0.4,0.2,0.8,0.4,1.1c0.3,0.3,0.7,0.5,1.2,0.5
			c0.8,0,1.6-0.5,1.6-1.6l0-14.2c0.9,0.1,1.9,0.1,2.9,0.1c1.4,0,2.9-0.1,4.4-0.2c0.8-0.1,1.6-0.2,2.4-0.3l0,0.9
			c0.2,4.4,0.3,8.8,0.6,13.3c0.1,1,0.9,1.6,1.7,1.6c0.5,0,0.9-0.2,1.2-0.5c0.3-0.3,0.4-0.7,0.4-1.1c-0.2-5-0.4-9.9-0.6-14.9
			c3.5-1,9.6-3.3,12.4-8.3c1.5-2.6,1.8-5.5,0.9-8.7C852.9,116.1,846.7,113.7,840.9,112.3z M841.6,137.3c-0.3-7.8-0.5-14.9-0.6-21.8
			c1.8,0.5,3.2,1.1,4.4,1.7c3.2,1.8,5.6,4.6,6.4,7.5c0.6,2.2,0.3,4.5-1,6.5C848.9,134.2,845.9,136.2,841.6,137.3z M834.5,111.1
			c-1.9-0.3-3.9-0.7-5.7-1.1l0-23.2c2.8-0.7,5.7-1.1,8.6-1.1h0c0,9.3,0.1,17.8,0.2,25.9C836.6,111.5,835.5,111.3,834.5,111.1z
			 M828.8,113.2c1.3,0.2,2.6,0.4,3.9,0.7c1.7,0.3,3.3,0.5,4.9,0.8c0.1,7.5,0.4,15.1,0.7,23.2c-1.2,0.2-2.3,0.3-3.4,0.4
			c-1.1,0.1-2.1,0.1-3.1,0.1c-1,0-2.1,0-3-0.1L828.8,113.2z M825.6,87.9l0,21.2c-0.4-0.1-0.8-0.2-1.1-0.4c-3.1-1.2-7.2-4-8.5-7.8
			c-0.7-2.1-0.5-4.2,0.6-6.2C818.6,91.3,822.5,89.2,825.6,87.9z"/>
		<path fill="#2B2B2B" d="M805.1,71c-0.3,0-0.6,0.1-0.9,0.3c-10.9,7-18.2,17.9-20.4,30.6c-0.1,0.5,0,1,0.4,1.4
			c0.3,0.4,0.9,0.7,1.4,0.7c0.7,0,1.3-0.5,1.4-1.2c2.1-11.9,8.8-22.1,18.9-28.6c0.6-0.4,0.9-1.1,0.7-1.8
			C806.4,71.6,805.8,71,805.1,71z"/>
		<path fill="#242424" d="M811.6,70.3c0.3-0.3,0.4-0.7,0.4-1.1c0-0.8-0.5-1.6-1.6-1.6c-0.5,0-0.9,0.2-1.2,0.5
			c-0.3,0.3-0.4,0.7-0.4,1.1c0,0.8,0.5,1.6,1.6,1.6C810.9,70.8,811.3,70.7,811.6,70.3z"/>
	</g>
</g>
<g>
	<g>
		<path fill="#2B2B2B" d="M100,245.2c-5.2,0-10.3,0.7-15.2,2c-26.9,7.1-48.1,36.5-46.3,64.2c1.4,11.6,7.5,24.9,16.7,36.4
			c8.6,10.8,19.8,17.4,33.9,20.2c5.4,1.1,12.4,2.3,19.3,2.3c7.6,0,14.2-1.4,20.5-4.3c11.1-5.2,20.8-13.7,27.2-24.1
			c12.8-20.6,10.2-50.3-6.3-72.4C138.6,254.6,119.5,245.2,100,245.2z M158.3,329.9c-3.8,10.8-11.5,20.7-21.6,27.8
			c-8.9,6.3-18.3,9.3-28.6,9.3c-2.1,0-4.3-0.1-6.5-0.4c-13.9-1.6-28.3-4.7-39.1-15.4c-11.1-11-19.2-26.7-20.8-39.9
			c-1.4-21.9,13.5-47,33.9-57.2c7.4-3.7,15.8-5.6,24.4-5.6c15,0,29.7,5.6,40.4,15.5C157.9,280.1,165.8,309,158.3,329.9z"/>
		<path fill="#B2C217" d="M157.9,330.1c-3.8,10.8-11.5,20.7-21.6,27.8c-8.9,6.3-18.3,9.3-28.6,9.3c-2.1,0-4.3-0.1-6.5-0.4
			c-13.9-1.6-28.3-4.7-39.1-15.4c-11.1-11-19.2-26.7-20.8-39.9c-1.4-21.9,13.5-47,33.9-57.2c7.3-3.7,15.8-5.6,24.4-5.6
			c15,0,29.7,5.6,40.4,15.5C157.4,280.2,165.3,309.2,157.9,330.1z"/>
		<path fill="#2B2B2B" d="M180.9,308.8c-1.7-22.4-7.2-39.4-17-51.9c-10.7-13.7-26.6-23.9-44.8-28.6c-6-1.4-12.1-2.1-18.1-2.1
			c-12,0-23.6,2.8-34.6,8.4c-11.1,5.6-30.9,17.8-39,36.1c-7.5,16.9-9.7,36.1-5.9,51.2c3.5,13.7,11.6,27.5,22.9,38.8
			c16.4,16.4,38.9,25.8,61.8,25.8l0,0c7.1,0,14.1-0.9,20.9-2.7C160.3,375,183.4,342.8,180.9,308.8z M177.9,317.3
			c-0.4,7.5-2.8,16.2-7.2,26.1c-6.6,14.8-17.6,26.1-31.8,32.7c-10.1,4.7-21,7.1-32.5,7.1c-17.8,0-35.5-5.9-49.9-16.5
			c-10.8-8-19.8-18.6-25.9-30.8c-7.6-15.1-9-30.5-4.4-49.9c2.8-11.8,6.5-19.7,12.5-26.3c5.6-6.2,12.8-12.1,21.3-17.5
			c13.2-8.3,27.1-12.6,41.5-12.6c5.6,0,11.3,0.7,16.9,1.9c15.6,4.1,29.3,12.2,39.7,23.5c9.2,10,15.1,23.4,18.1,40.9
			C177.2,302.3,178.3,309.9,177.9,317.3z"/>
		<path fill="#2B2B2B" d="M108.7,308.1c-0.1-8.2-0.2-16.9-0.2-26.4c3.8,0.4,8.7,1.9,11.3,6.2c0.3,0.5,0.8,0.8,1.4,0.8
			c0.6,0,1.2-0.4,1.5-0.9c0.3-0.5,0.2-1-0.1-1.5c-2.5-4-7.5-6.6-14.2-7.5v-2.6c0-1.5,0-3,0-4.5c0-0.4-0.1-0.8-0.4-1.1
			c-0.3-0.3-0.7-0.5-1.2-0.5c-0.8,0-1.6,0.6-1.6,1.6c0,1.5,0,2.9,0,4.4v2.5c-0.4,0-0.8,0-1.1,0c-2.5,0-5,0.2-7.4,0.7l0-7.2
			c0-0.4-0.2-0.8-0.4-1.1c-0.3-0.3-0.7-0.5-1.2-0.5c-0.8,0-1.6,0.5-1.6,1.6l0,8c-6,1.8-10.4,4.9-12.4,8.8c-1.5,2.8-1.6,6-0.4,9.4
			c2.4,6.7,8,8.9,12.7,10.1l-0.1,25.3c-6.1-1.4-10.2-5.3-12.4-11.9c-0.2-0.7-0.8-1.1-1.6-1.1c-0.6,0-1.1,0.3-1.4,0.7
			c-0.3,0.4-0.3,0.9-0.2,1.3c2.7,8.2,7.8,12.9,15.6,14.3l0,14.6c0,0.4,0.2,0.8,0.4,1.1c0.3,0.3,0.7,0.5,1.2,0.5
			c0.8,0,1.6-0.5,1.6-1.6l0-14.2c1,0.1,1.9,0.1,2.9,0.1c1.4,0,2.9-0.1,4.4-0.2c0.8-0.1,1.6-0.2,2.4-0.3l0,0.9
			c0.2,4.4,0.3,8.8,0.6,13.3c0.1,1,0.9,1.6,1.7,1.6c0.5,0,0.9-0.2,1.2-0.5c0.3-0.3,0.4-0.7,0.4-1.1c-0.2-5-0.4-9.9-0.6-14.9
			c3.5-1,9.6-3.3,12.4-8.3c1.5-2.6,1.8-5.5,0.8-8.7C120.7,311.8,114.5,309.4,108.7,308.1z M109.4,333c-0.3-7.8-0.5-14.9-0.6-21.8
			c1.8,0.5,3.2,1.1,4.4,1.7c3.2,1.8,5.6,4.6,6.4,7.5c0.6,2.2,0.2,4.5-1,6.5C116.7,329.9,113.8,331.9,109.4,333z M102.3,306.8
			c-1.9-0.3-3.9-0.7-5.7-1.1l0-23.2c2.7-0.7,5.7-1.1,8.6-1.1h0c0,9.3,0.1,17.8,0.2,25.9C104.4,307.2,103.4,307,102.3,306.8z
			 M96.6,308.9c1.3,0.2,2.6,0.4,3.9,0.7c1.6,0.3,3.3,0.5,4.9,0.8c0.1,7.5,0.4,15.1,0.7,23.2c-1.2,0.2-2.3,0.3-3.4,0.4
			c-1.1,0.1-2.1,0.1-3.1,0.1c-1,0-2.1,0-3-0.1L96.6,308.9z M93.4,283.7l0,21.2c-0.4-0.1-0.8-0.2-1.1-0.4c-3.1-1.2-7.1-4-8.5-7.8
			c-0.7-2.1-0.5-4.2,0.7-6.2C86.4,287,90.3,284.9,93.4,283.7z"/>
		<path fill="#2B2B2B" d="M72.9,266.8c-0.3,0-0.6,0.1-0.9,0.3c-10.9,7-18.2,17.9-20.4,30.6c-0.1,0.5,0,1,0.3,1.4
			c0.4,0.4,0.9,0.7,1.4,0.7c0.7,0,1.3-0.5,1.4-1.2c2.1-11.9,8.8-22.1,18.9-28.6c0.6-0.4,0.9-1.1,0.7-1.8
			C74.2,267.3,73.6,266.8,72.9,266.8z"/>
		<path fill="#242424" d="M79.4,266.1c0.2-0.3,0.4-0.7,0.4-1.1c0-0.8-0.5-1.6-1.6-1.6c-0.5,0-0.9,0.2-1.2,0.5
			c-0.2,0.3-0.4,0.7-0.4,1.1c0,0.8,0.5,1.6,1.6,1.6C78.7,266.6,79.1,266.4,79.4,266.1z"/>
	</g>
	<g>
		<path fill="#2B2B2B" d="M283.1,245.2c-5.2,0-10.3,0.7-15.2,2c-26.9,7.1-48.1,36.5-46.3,64.2c1.4,11.6,7.5,24.9,16.7,36.4
			c8.6,10.8,19.8,17.4,34,20.2c5.3,1.1,12.4,2.3,19.3,2.3c7.6,0,14.2-1.4,20.5-4.3c11.1-5.2,20.8-13.7,27.2-24.1
			c12.8-20.6,10.2-50.3-6.3-72.4C321.7,254.6,302.6,245.2,283.1,245.2z M341.4,329.9c-3.8,10.8-11.5,20.7-21.6,27.8
			c-8.9,6.3-18.3,9.3-28.6,9.3c-2.1,0-4.3-0.1-6.5-0.4c-13.9-1.6-28.3-4.7-39.1-15.4c-11.1-11-19.2-26.7-20.9-39.9
			c-1.4-21.9,13.5-47,33.9-57.2c7.3-3.7,15.8-5.6,24.4-5.6c15,0,29.7,5.6,40.4,15.5C340.9,280.1,348.8,309,341.4,329.9z"/>
		<path fill="#B2C217" d="M340.9,330.1c-3.8,10.8-11.5,20.7-21.6,27.8c-8.9,6.3-18.3,9.3-28.6,9.3c-2.1,0-4.3-0.1-6.5-0.4
			c-13.9-1.6-28.3-4.7-39.1-15.4c-11-11-19.2-26.7-20.8-39.9c-1.4-21.9,13.5-47,33.9-57.2c7.3-3.7,15.8-5.6,24.4-5.6
			c15,0,29.7,5.6,40.4,15.5C340.5,280.2,348.3,309.2,340.9,330.1z"/>
		<path fill="#2B2B2B" d="M363.9,308.8c-1.7-22.4-7.3-39.4-17-51.9c-10.7-13.7-26.6-23.9-44.8-28.6c-6-1.4-12.1-2.1-18.1-2.1
			c-12,0-23.6,2.8-34.6,8.4c-11.1,5.6-30.9,17.8-39,36.1c-7.5,16.9-9.7,36.1-5.9,51.2c3.5,13.7,11.6,27.5,22.9,38.8
			c16.4,16.4,38.9,25.8,61.8,25.8l0,0c7.1,0,14.1-0.9,20.9-2.7C343.4,375,366.5,342.8,363.9,308.8z M360.9,317.3
			c-0.4,7.5-2.8,16.2-7.2,26.1c-6.6,14.8-17.6,26.1-31.8,32.7c-10.1,4.7-21,7.1-32.5,7.1c-17.8,0-35.5-5.9-49.9-16.5
			c-10.8-8-19.8-18.6-25.9-30.8c-7.6-15.1-9-30.5-4.4-49.9c2.8-11.8,6.5-19.7,12.5-26.3c5.6-6.2,12.8-12.1,21.3-17.5
			c13.2-8.3,27.1-12.6,41.5-12.6c5.6,0,11.3,0.7,16.9,1.9c15.6,4.1,29.3,12.2,39.7,23.5c9.2,10,15.1,23.4,18.1,40.9
			C360.2,302.3,361.3,309.9,360.9,317.3z"/>
		<path fill="#2B2B2B" d="M291.8,308.1c-0.1-8.2-0.2-16.9-0.2-26.4c3.8,0.4,8.7,1.9,11.4,6.2c0.3,0.5,0.8,0.8,1.3,0.8
			c0.6,0,1.2-0.4,1.5-0.9c0.3-0.5,0.2-1-0.1-1.5c-2.5-4-7.5-6.6-14.2-7.5v-2.6c0-1.5,0-3,0-4.5c0-0.4-0.1-0.8-0.4-1.1
			c-0.3-0.3-0.7-0.5-1.2-0.5c-0.8,0-1.6,0.6-1.6,1.6c0,1.5,0,2.9,0,4.4v2.5c-0.4,0-0.8,0-1.1,0c-2.5,0-5,0.2-7.4,0.7l0-7.2
			c0-0.4-0.1-0.8-0.4-1.1c-0.3-0.3-0.7-0.5-1.2-0.5c-0.8,0-1.6,0.5-1.6,1.6l0,8c-6,1.8-10.4,4.9-12.4,8.8c-1.5,2.8-1.6,6-0.4,9.4
			c2.4,6.7,8,8.9,12.7,10.1l-0.1,25.3c-6.1-1.4-10.2-5.3-12.4-11.9c-0.2-0.7-0.8-1.1-1.6-1.1c-0.6,0-1.1,0.3-1.4,0.7
			c-0.3,0.4-0.3,0.9-0.2,1.3c2.7,8.2,7.8,12.9,15.6,14.3l0,14.6c0,0.4,0.2,0.8,0.4,1.1c0.3,0.3,0.7,0.5,1.2,0.5
			c0.8,0,1.6-0.5,1.6-1.6l0-14.2c1,0.1,1.9,0.1,2.9,0.1c1.4,0,2.9-0.1,4.4-0.2c0.8-0.1,1.6-0.2,2.4-0.3l0,0.9
			c0.2,4.4,0.4,8.8,0.6,13.3c0.1,1,0.9,1.6,1.7,1.6c0.5,0,0.9-0.2,1.2-0.5c0.3-0.3,0.4-0.7,0.4-1.1c-0.2-5-0.4-9.9-0.6-14.9
			c3.5-1,9.6-3.3,12.4-8.3c1.5-2.6,1.8-5.5,0.8-8.7C303.7,311.8,297.6,309.4,291.8,308.1z M292.4,333c-0.3-7.8-0.5-14.9-0.6-21.8
			c1.8,0.5,3.2,1.1,4.4,1.7c3.2,1.8,5.6,4.6,6.4,7.5c0.6,2.2,0.3,4.5-1,6.5C299.8,329.9,296.8,331.9,292.4,333z M285.4,306.8
			c-1.9-0.3-3.8-0.7-5.7-1.1l0-23.2c2.7-0.7,5.7-1.1,8.5-1.1l0,0c0,9.3,0.1,17.8,0.2,25.9C287.4,307.2,286.4,307,285.4,306.8z
			 M279.7,308.9c1.3,0.2,2.6,0.4,3.9,0.7c1.6,0.3,3.3,0.5,4.9,0.8c0.1,7.5,0.4,15.1,0.7,23.2c-1.1,0.2-2.3,0.3-3.4,0.4
			c-1,0.1-2.1,0.1-3.1,0.1c-1,0-2.1,0-3-0.1L279.7,308.9z M276.5,283.7l0,21.2c-0.4-0.1-0.8-0.2-1.1-0.4c-3.1-1.2-7.1-4-8.5-7.8
			c-0.7-2.1-0.5-4.2,0.6-6.2C269.4,287,273.4,284.9,276.5,283.7z"/>
		<path fill="#2B2B2B" d="M256,266.8c-0.3,0-0.6,0.1-0.8,0.3c-10.9,7-18.2,17.9-20.4,30.6c-0.1,0.5,0,1,0.4,1.4
			c0.3,0.4,0.9,0.7,1.4,0.7c0.7,0,1.3-0.5,1.4-1.2c2.1-11.9,8.8-22.1,18.9-28.6c0.6-0.4,0.9-1.1,0.7-1.8
			C257.3,267.3,256.7,266.8,256,266.8z"/>
		<path fill="#242424" d="M262.4,266.1c0.2-0.3,0.4-0.7,0.4-1.1c0-0.8-0.5-1.6-1.6-1.6c-0.5,0-0.9,0.2-1.2,0.5
			c-0.2,0.3-0.4,0.7-0.4,1.1c0,0.8,0.5,1.6,1.6,1.6C261.7,266.6,262.1,266.4,262.4,266.1z"/>
	</g>
	<g>
		<path fill="#2B2B2B" d="M466.1,245.2c-5.2,0-10.3,0.7-15.2,2c-26.9,7.1-48.1,36.5-46.3,64.2c1.4,11.6,7.5,24.9,16.7,36.4
			c8.6,10.8,19.7,17.4,33.9,20.2c5.4,1.1,12.4,2.3,19.3,2.3c7.6,0,14.3-1.4,20.5-4.3c11.1-5.2,20.8-13.7,27.2-24.1
			c12.7-20.6,10.2-50.3-6.3-72.4C504.7,254.6,485.6,245.2,466.1,245.2z M524.4,329.9c-3.8,10.8-11.5,20.7-21.6,27.8
			c-8.9,6.3-18.3,9.3-28.6,9.3c-2.1,0-4.3-0.1-6.5-0.4c-13.9-1.6-28.3-4.7-39.1-15.4c-11-11-19.2-26.7-20.8-39.9
			c-1.4-21.9,13.5-47,33.9-57.2c7.3-3.7,15.8-5.6,24.4-5.6c14.9,0,29.7,5.6,40.4,15.5C524,280.1,531.8,309,524.4,329.9z"/>
		<path fill="#B2C217" d="M523.9,330.1c-3.8,10.8-11.5,20.7-21.6,27.8c-9,6.3-18.3,9.3-28.6,9.3c-2.1,0-4.3-0.1-6.5-0.4
			c-13.9-1.6-28.3-4.7-39.1-15.4c-11.1-11-19.2-26.7-20.8-39.9c-1.4-21.9,13.5-47,33.9-57.2c7.4-3.7,15.8-5.6,24.4-5.6
			c15,0,29.7,5.6,40.4,15.5C523.5,280.2,531.4,309.2,523.9,330.1z"/>
		<path fill="#2B2B2B" d="M547,308.8c-1.7-22.4-7.2-39.4-17-51.9c-10.7-13.7-26.6-23.9-44.8-28.6c-6-1.4-12.1-2.1-18.1-2.1
			c-12,0-23.6,2.8-34.6,8.4c-11.1,5.6-30.9,17.8-39,36.1c-7.5,16.9-9.7,36.1-5.9,51.2c3.5,13.7,11.6,27.5,22.9,38.8
			c16.4,16.4,38.9,25.8,61.8,25.8l0,0c7.1,0,14.1-0.9,20.9-2.7C526.4,375,549.5,342.8,547,308.8z M544,317.3
			c-0.4,7.5-2.8,16.2-7.2,26.1c-6.6,14.8-17.6,26.1-31.8,32.7c-10.1,4.7-21,7.1-32.5,7.1c-17.8,0-35.5-5.9-49.9-16.5
			c-10.8-8-19.8-18.6-25.9-30.8c-7.6-15.1-9-30.5-4.4-49.9c2.8-11.8,6.5-19.7,12.5-26.3c5.6-6.2,12.8-12.1,21.3-17.5
			c13.2-8.3,27.1-12.6,41.5-12.6c5.6,0,11.3,0.7,16.9,1.9c15.6,4.1,29.3,12.2,39.7,23.5c9.2,10,15.1,23.4,18.1,40.9
			C543.3,302.3,544.4,309.9,544,317.3z"/>
		<path fill="#2B2B2B" d="M474.8,308.1c-0.1-8.2-0.2-16.9-0.2-26.4c3.8,0.4,8.7,1.9,11.4,6.2c0.3,0.5,0.8,0.8,1.3,0.8
			c0.6,0,1.2-0.4,1.5-0.9c0.3-0.5,0.2-1-0.1-1.5c-2.5-4-7.5-6.6-14.2-7.5v-2.6c0-1.5,0-3,0-4.5c0-0.4-0.1-0.8-0.4-1.1
			c-0.3-0.3-0.7-0.5-1.2-0.5c-0.8,0-1.6,0.6-1.6,1.6c0,1.5,0,2.9,0,4.4v2.5c-0.4,0-0.8,0-1.2,0c-2.5,0-5,0.2-7.4,0.7l0-7.2
			c0-0.4-0.2-0.8-0.4-1.1c-0.3-0.3-0.7-0.5-1.2-0.5c-0.8,0-1.6,0.5-1.6,1.6l0,8c-6,1.8-10.4,4.9-12.4,8.8c-1.5,2.8-1.6,6-0.4,9.4
			c2.4,6.7,8,8.9,12.7,10.1l-0.1,25.3c-6.2-1.4-10.2-5.3-12.4-11.9c-0.2-0.7-0.8-1.1-1.6-1.1c-0.6,0-1.1,0.3-1.4,0.7
			c-0.3,0.4-0.3,0.9-0.2,1.3c2.7,8.2,7.8,12.9,15.6,14.3l0,14.6c0,0.4,0.1,0.8,0.4,1.1c0.3,0.3,0.7,0.5,1.2,0.5
			c0.8,0,1.6-0.5,1.6-1.6l0-14.2c0.9,0.1,1.9,0.1,2.9,0.1c1.4,0,2.8-0.1,4.4-0.2c0.8-0.1,1.6-0.2,2.4-0.3l0,0.9
			c0.2,4.4,0.3,8.8,0.6,13.3c0,1,0.9,1.6,1.7,1.6c0.5,0,0.9-0.2,1.2-0.5c0.3-0.3,0.4-0.7,0.4-1.1c-0.2-5-0.4-9.9-0.6-14.9
			c3.5-1,9.6-3.3,12.4-8.3c1.5-2.6,1.8-5.5,0.8-8.7C486.8,311.8,480.6,309.4,474.8,308.1z M475.5,333c-0.3-7.8-0.5-14.9-0.6-21.8
			c1.8,0.5,3.2,1.1,4.4,1.7c3.2,1.8,5.6,4.6,6.4,7.5c0.6,2.2,0.2,4.5-1,6.5C482.8,329.9,479.8,331.9,475.5,333z M468.4,306.8
			c-1.9-0.3-3.9-0.7-5.7-1.1l0-23.2c2.7-0.7,5.7-1.1,8.5-1.1h0c0,9.3,0.1,17.8,0.2,25.9C470.5,307.2,469.4,307,468.4,306.8z
			 M462.7,308.9c1.3,0.2,2.6,0.4,3.9,0.7c1.7,0.3,3.3,0.5,4.9,0.8c0.1,7.5,0.4,15.1,0.7,23.2c-1.2,0.2-2.3,0.3-3.4,0.4
			c-1.1,0.1-2.1,0.1-3.1,0.1c-1,0-2.1,0-3-0.1L462.7,308.9z M459.5,283.7l0,21.2c-0.4-0.1-0.8-0.2-1.1-0.4c-3.1-1.2-7.1-4-8.5-7.8
			c-0.7-2.1-0.5-4.2,0.6-6.2C452.5,287,456.4,284.9,459.5,283.7z"/>
		<path fill="#2B2B2B" d="M439,266.8c-0.3,0-0.6,0.1-0.8,0.3c-10.9,7-18.2,17.9-20.4,30.6c-0.1,0.5,0,1,0.4,1.4
			c0.3,0.4,0.9,0.7,1.4,0.7c0.7,0,1.3-0.5,1.4-1.2c2.1-11.9,8.8-22.1,18.9-28.6c0.6-0.4,0.9-1.1,0.7-1.8
			C440.3,267.3,439.7,266.8,439,266.8z"/>
		<path fill="#242424" d="M445.5,266.1c0.3-0.3,0.4-0.7,0.4-1.1c0-0.8-0.5-1.6-1.6-1.6c-0.5,0-0.9,0.2-1.2,0.5
			c-0.3,0.3-0.4,0.7-0.4,1.1c0,0.8,0.5,1.6,1.6,1.6C444.8,266.6,445.2,266.4,445.5,266.1z"/>
	</g>
	<g>
		<path fill="#2B2B2B" d="M649.1,245.2c-5.2,0-10.3,0.7-15.2,2c-26.9,7.1-48.1,36.5-46.3,64.2c1.4,11.6,7.5,24.9,16.7,36.4
			c8.6,10.8,19.7,17.4,34,20.2c5.3,1.1,12.4,2.3,19.3,2.3c7.5,0,14.2-1.4,20.5-4.3c11.1-5.2,20.8-13.7,27.2-24.1
			c12.7-20.6,10.2-50.3-6.3-72.4C687.8,254.6,668.7,245.2,649.1,245.2z M707.5,329.9c-3.9,10.8-11.5,20.7-21.6,27.8
			c-8.9,6.3-18.3,9.3-28.5,9.3c-2.1,0-4.3-0.1-6.5-0.4c-13.9-1.6-28.3-4.7-39.1-15.4c-11-11-19.2-26.7-20.8-39.9
			c-1.4-21.9,13.5-47,33.9-57.2c7.3-3.7,15.8-5.6,24.4-5.6c15,0,29.7,5.6,40.4,15.5C707,280.1,714.9,309,707.5,329.9z"/>
		<path fill="#B2C217" d="M707,330.1c-3.8,10.8-11.5,20.7-21.6,27.8c-8.9,6.3-18.3,9.3-28.6,9.3c-2.1,0-4.3-0.1-6.5-0.4
			c-13.9-1.6-28.3-4.7-39.1-15.4c-11.1-11-19.2-26.7-20.8-39.9c-1.4-21.9,13.5-47,33.9-57.2c7.3-3.7,15.8-5.6,24.4-5.6
			c14.9,0,29.7,5.6,40.4,15.5C706.6,280.2,714.4,309.2,707,330.1z"/>
		<path fill="#2B2B2B" d="M730,308.8c-1.7-22.4-7.2-39.4-17-51.9c-10.7-13.7-26.6-23.9-44.8-28.6c-6-1.4-12.1-2.1-18.1-2.1
			c-12,0-23.6,2.8-34.6,8.4c-11.1,5.6-30.9,17.8-39,36.1c-7.5,16.9-9.7,36.1-5.9,51.2c3.5,13.7,11.6,27.5,22.9,38.8
			c16.4,16.4,38.9,25.8,61.8,25.8l0,0c7.1,0,14.1-0.9,20.9-2.7C709.5,375,732.6,342.8,730,308.8z M727.1,317.3
			c-0.4,7.5-2.8,16.2-7.2,26.1c-6.6,14.8-17.6,26.1-31.8,32.7c-10.1,4.7-21,7.1-32.5,7.1c-17.8,0-35.5-5.9-49.9-16.5
			c-10.8-8-19.8-18.6-25.9-30.8c-7.6-15.1-9-30.5-4.4-49.9c2.8-11.8,6.5-19.7,12.5-26.3c5.6-6.2,12.8-12.1,21.3-17.5
			c13.2-8.3,27.1-12.6,41.5-12.6c5.6,0,11.3,0.7,16.9,1.9c15.6,4.1,29.3,12.2,39.7,23.5c9.2,10,15.1,23.4,18.1,40.9
			C726.3,302.3,727.4,309.9,727.1,317.3z"/>
		<path fill="#2B2B2B" d="M657.9,308.1c-0.1-8.2-0.2-16.9-0.2-26.4c3.7,0.4,8.7,1.9,11.4,6.2c0.3,0.5,0.8,0.8,1.3,0.8
			c0.6,0,1.2-0.4,1.5-0.9c0.3-0.5,0.2-1-0.1-1.5c-2.5-4-7.5-6.6-14.2-7.5v-2.6c0-1.5,0-3,0-4.5c0-0.4-0.1-0.8-0.4-1.1
			c-0.3-0.3-0.7-0.5-1.2-0.5c-0.8,0-1.6,0.6-1.7,1.6c0,1.5,0,2.9,0,4.4v2.5c-0.4,0-0.8,0-1.2,0c-2.5,0-5,0.2-7.4,0.7l0-7.2
			c0-0.4-0.2-0.8-0.4-1.1c-0.3-0.3-0.7-0.5-1.2-0.5c-0.8,0-1.6,0.5-1.6,1.6l0,8c-6,1.8-10.4,4.9-12.4,8.8c-1.5,2.8-1.6,6-0.4,9.4
			c2.4,6.7,8,8.9,12.7,10.1l-0.1,25.3c-6.1-1.4-10.2-5.3-12.4-11.9c-0.2-0.7-0.8-1.1-1.6-1.1c-0.6,0-1.1,0.3-1.4,0.7
			c-0.3,0.4-0.3,0.9-0.2,1.3c2.7,8.2,7.8,12.9,15.5,14.3l0,14.6c0,0.4,0.2,0.8,0.4,1.1c0.3,0.3,0.7,0.5,1.2,0.5
			c0.8,0,1.6-0.5,1.6-1.6l0-14.2c1,0.1,1.9,0.1,2.9,0.1c1.4,0,2.9-0.1,4.4-0.2c0.8-0.1,1.6-0.2,2.4-0.3l0,0.9
			c0.2,4.4,0.3,8.8,0.6,13.3c0.1,1,0.9,1.6,1.7,1.6c0.5,0,0.9-0.2,1.2-0.5c0.3-0.3,0.4-0.7,0.4-1.1c-0.2-5-0.4-9.9-0.6-14.9
			c3.5-1,9.6-3.3,12.4-8.3c1.5-2.6,1.7-5.5,0.8-8.7C669.8,311.8,663.7,309.4,657.9,308.1z M658.5,333c-0.3-7.8-0.5-14.9-0.6-21.8
			c1.8,0.5,3.2,1.1,4.4,1.7c3.2,1.8,5.6,4.6,6.4,7.5c0.6,2.2,0.2,4.5-1,6.5C665.9,329.9,662.9,331.9,658.5,333z M651.4,306.8
			c-1.9-0.3-3.9-0.7-5.7-1.1l0-23.2c2.8-0.7,5.7-1.1,8.6-1.1h0c0,9.3,0.1,17.8,0.2,25.9C653.5,307.2,652.5,307,651.4,306.8z
			 M645.8,308.9c1.3,0.2,2.6,0.4,3.9,0.7c1.7,0.3,3.3,0.5,4.9,0.8c0.2,7.5,0.4,15.1,0.7,23.2c-1.2,0.2-2.3,0.3-3.4,0.4
			c-1.1,0.1-2.1,0.1-3.1,0.1c-1,0-2.1,0-3.1-0.1L645.8,308.9z M642.6,283.7l0,21.2c-0.4-0.1-0.8-0.2-1.1-0.4c-3.1-1.2-7.1-4-8.5-7.8
			c-0.7-2.1-0.5-4.2,0.6-6.2C635.5,287,639.5,284.9,642.6,283.7z"/>
		<path fill="#2B2B2B" d="M622.1,266.8c-0.3,0-0.6,0.1-0.9,0.3c-10.9,7-18.2,17.9-20.4,30.6c-0.1,0.5,0,1,0.4,1.4
			c0.4,0.4,0.9,0.7,1.4,0.7c0.7,0,1.3-0.5,1.4-1.2c2.1-11.9,8.8-22.1,18.9-28.6c0.6-0.4,0.9-1.1,0.7-1.8
			C623.4,267.3,622.8,266.8,622.1,266.8z"/>
		<path fill="#242424" d="M628.5,266.1c0.3-0.3,0.4-0.7,0.4-1.1c0-0.8-0.5-1.6-1.6-1.6c-0.5,0-0.9,0.2-1.2,0.5
			c-0.3,0.3-0.4,0.7-0.4,1.1c0,0.8,0.5,1.6,1.6,1.6C627.8,266.6,628.2,266.4,628.5,266.1z"/>
	</g>
	<g>
		<path fill="#2B2B2B" d="M832.2,245.2c-5.2,0-10.3,0.7-15.2,2c-26.9,7.1-48.1,36.5-46.3,64.2c1.4,11.6,7.5,24.9,16.7,36.4
			c8.6,10.8,19.8,17.4,34,20.2c5.3,1.1,12.4,2.3,19.3,2.3c7.6,0,14.3-1.4,20.5-4.3c11.1-5.2,20.8-13.7,27.2-24.1
			c12.7-20.6,10.2-50.3-6.3-72.4C870.8,254.6,851.7,245.2,832.2,245.2z M890.5,329.9c-3.8,10.8-11.5,20.7-21.6,27.8
			c-8.9,6.3-18.3,9.3-28.6,9.3c-2.1,0-4.3-0.1-6.5-0.4c-13.9-1.6-28.3-4.7-39.1-15.4c-11.1-11-19.2-26.7-20.8-39.9
			c-1.4-21.9,13.5-47,33.9-57.2c7.3-3.7,15.8-5.6,24.4-5.6c15,0,29.7,5.6,40.4,15.5C890.1,280.1,897.9,309,890.5,329.9z"/>
		<path fill="#2B2B2B" d="M913.1,308.8c-1.7-22.4-7.2-39.4-17-51.9c-10.7-13.7-26.6-23.9-44.8-28.6c-6-1.4-12.1-2.1-18.1-2.1
			c-12,0-23.6,2.8-34.6,8.4c-11.1,5.6-30.9,17.8-39,36.1c-7.5,16.9-9.7,36.1-5.9,51.2c3.5,13.7,11.6,27.5,22.9,38.8
			c16.4,16.4,38.9,25.8,61.8,25.8l0,0c7.1,0,14.1-0.9,20.9-2.7C892.5,375,915.6,342.8,913.1,308.8z M910.1,317.3
			c-0.4,7.5-2.8,16.2-7.2,26.1c-6.6,14.8-17.6,26.1-31.8,32.7c-10.1,4.7-21,7.1-32.5,7.1c-17.8,0-35.5-5.9-49.9-16.5
			c-10.8-8-19.8-18.6-25.9-30.8c-7.6-15.1-9-30.5-4.4-49.9c2.8-11.8,6.5-19.7,12.5-26.3c5.6-6.2,12.8-12.1,21.3-17.5
			c13.2-8.3,27.1-12.6,41.5-12.6c5.6,0,11.3,0.7,16.9,1.9c15.6,4.1,29.3,12.2,39.7,23.5c9.2,10,15.1,23.4,18.1,40.9
			C909.4,302.3,910.5,309.9,910.1,317.3z"/>
		<path fill="#2B2B2B" d="M840.9,308.1c-0.1-8.2-0.2-16.9-0.2-26.4c3.8,0.4,8.7,1.9,11.4,6.2c0.3,0.5,0.8,0.8,1.3,0.8
			c0.6,0,1.2-0.4,1.5-0.9c0.3-0.5,0.2-1-0.1-1.5c-2.5-4-7.5-6.6-14.2-7.5v-2.6c0-1.5,0-3,0-4.5c0-0.4-0.2-0.8-0.4-1.1
			c-0.3-0.3-0.7-0.5-1.2-0.5c-0.8,0-1.6,0.6-1.6,1.6c0,1.5,0,2.9,0,4.4v2.5c-0.4,0-0.8,0-1.2,0c-2.5,0-5,0.2-7.4,0.7l0-7.2
			c0-0.4-0.2-0.8-0.4-1.1c-0.3-0.3-0.7-0.5-1.2-0.5c-0.8,0-1.6,0.5-1.6,1.6l0,8c-6,1.8-10.4,4.9-12.4,8.8c-1.5,2.8-1.6,6-0.4,9.4
			c2.4,6.7,8,8.9,12.7,10.1l-0.1,25.3c-6.1-1.4-10.2-5.3-12.4-11.9c-0.2-0.7-0.8-1.1-1.6-1.1c-0.6,0-1.1,0.3-1.4,0.7
			c-0.3,0.4-0.3,0.9-0.2,1.3c2.7,8.2,7.8,12.9,15.5,14.3l0,14.6c0,0.4,0.2,0.8,0.4,1.1c0.3,0.3,0.7,0.5,1.2,0.5
			c0.8,0,1.6-0.5,1.6-1.6l0-14.2c0.9,0.1,1.9,0.1,2.9,0.1c1.4,0,2.9-0.1,4.4-0.2c0.8-0.1,1.6-0.2,2.4-0.3l0,0.9
			c0.2,4.4,0.3,8.8,0.6,13.3c0.1,1,0.9,1.6,1.7,1.6c0.5,0,0.9-0.2,1.2-0.5c0.3-0.3,0.4-0.7,0.4-1.1c-0.2-5-0.4-9.9-0.6-14.9
			c3.5-1,9.6-3.3,12.4-8.3c1.5-2.6,1.8-5.5,0.9-8.7C852.9,311.8,846.7,309.4,840.9,308.1z M841.6,333c-0.3-7.8-0.5-14.9-0.6-21.8
			c1.8,0.5,3.2,1.1,4.4,1.7c3.2,1.8,5.6,4.6,6.4,7.5c0.6,2.2,0.3,4.5-1,6.5C848.9,329.9,845.9,331.9,841.6,333z M834.5,306.8
			c-1.9-0.3-3.9-0.7-5.7-1.1l0-23.2c2.8-0.7,5.7-1.1,8.6-1.1h0c0,9.3,0.1,17.8,0.2,25.9C836.6,307.2,835.5,307,834.5,306.8z
			 M828.8,308.9c1.3,0.2,2.6,0.4,3.9,0.7c1.7,0.3,3.3,0.5,4.9,0.8c0.1,7.5,0.4,15.1,0.7,23.2c-1.2,0.2-2.3,0.3-3.4,0.4
			c-1.1,0.1-2.1,0.1-3.1,0.1c-1,0-2.1,0-3-0.1L828.8,308.9z M825.6,283.7l0,21.2c-0.4-0.1-0.8-0.2-1.1-0.4c-3.1-1.2-7.2-4-8.5-7.8
			c-0.7-2.1-0.5-4.2,0.6-6.2C818.6,287,822.5,284.9,825.6,283.7z"/>
		<path fill="#2B2B2B" d="M805.1,266.8c-0.3,0-0.6,0.1-0.9,0.3c-10.9,7-18.2,17.9-20.4,30.6c-0.1,0.5,0,1,0.4,1.4
			c0.3,0.4,0.9,0.7,1.4,0.7c0.7,0,1.3-0.5,1.4-1.2c2.1-11.9,8.8-22.1,18.9-28.6c0.6-0.4,0.9-1.1,0.7-1.8
			C806.4,267.3,805.8,266.8,805.1,266.8z"/>
		<path fill="#242424" d="M811.6,266.1c0.3-0.3,0.4-0.7,0.4-1.1c0-0.8-0.5-1.6-1.6-1.6c-0.5,0-0.9,0.2-1.2,0.5
			c-0.3,0.3-0.4,0.7-0.4,1.1c0,0.8,0.5,1.6,1.6,1.6C810.9,266.6,811.3,266.4,811.6,266.1z"/>
	</g>
</g>
<g>
	<g>
		<path fill="#2B2B2B" d="M100,441c-5.2,0-10.3,0.7-15.2,2c-26.9,7.1-48.1,36.5-46.3,64.2c1.4,11.6,7.5,24.9,16.7,36.4
			c8.6,10.8,19.8,17.4,33.9,20.2c5.4,1.1,12.4,2.3,19.3,2.3c7.6,0,14.2-1.4,20.5-4.3c11.1-5.2,20.8-13.7,27.2-24.1
			c12.8-20.6,10.2-50.3-6.3-72.4C138.6,450.3,119.5,441,100,441z M158.3,525.6c-3.8,10.8-11.5,20.7-21.6,27.8
			c-8.9,6.3-18.3,9.3-28.6,9.3c-2.1,0-4.3-0.1-6.5-0.4c-13.9-1.6-28.3-4.7-39.1-15.4c-11.1-11-19.2-26.7-20.8-39.9
			c-1.4-21.9,13.5-47,33.9-57.2c7.4-3.7,15.8-5.6,24.4-5.6c15,0,29.7,5.6,40.4,15.5C157.9,475.8,165.8,504.7,158.3,525.6z"/>
		<path fill="#B2C217" d="M157.9,525.8c-3.8,10.8-11.5,20.7-21.6,27.8c-8.9,6.3-18.3,9.3-28.6,9.3c-2.1,0-4.3-0.1-6.5-0.4
			c-13.9-1.6-28.3-4.7-39.1-15.4c-11.1-11-19.2-26.7-20.8-39.9c-1.4-21.9,13.5-47,33.9-57.2c7.3-3.7,15.8-5.6,24.4-5.6
			c15,0,29.7,5.6,40.4,15.5C157.4,475.9,165.3,504.9,157.9,525.8z"/>
		<path fill="#2B2B2B" d="M180.9,504.5c-1.7-22.4-7.2-39.4-17-51.9c-10.7-13.7-26.6-23.9-44.8-28.6c-6-1.4-12.1-2.1-18.1-2.1
			c-12,0-23.6,2.8-34.6,8.4c-11.1,5.6-30.9,17.8-39,36.1c-7.5,16.9-9.7,36.1-5.9,51.2c3.5,13.7,11.6,27.5,22.9,38.8
			c16.4,16.4,38.9,25.8,61.8,25.8l0,0c7.1,0,14.1-0.9,20.9-2.7C160.3,570.7,183.4,538.5,180.9,504.5z M177.9,513
			c-0.4,7.5-2.8,16.2-7.2,26.1c-6.6,14.8-17.6,26.1-31.8,32.7c-10.1,4.7-21,7.1-32.5,7.1c-17.8,0-35.5-5.9-49.9-16.5
			c-10.8-8-19.8-18.6-25.9-30.8c-7.6-15.1-9-30.5-4.4-49.9c2.8-11.8,6.5-19.7,12.5-26.3c5.6-6.2,12.8-12.1,21.3-17.5
			c13.2-8.3,27.1-12.6,41.5-12.6c5.6,0,11.3,0.7,16.9,1.9c15.6,4.1,29.3,12.2,39.7,23.5c9.2,10,15.1,23.4,18.1,40.9
			C177.2,498,178.3,505.7,177.9,513z"/>
		<path fill="#2B2B2B" d="M108.7,503.8c-0.1-8.2-0.2-16.9-0.2-26.4c3.8,0.4,8.7,1.9,11.3,6.2c0.3,0.5,0.8,0.8,1.4,0.8
			c0.6,0,1.2-0.4,1.5-0.9c0.3-0.5,0.2-1-0.1-1.5c-2.5-4-7.5-6.6-14.2-7.5v-2.6c0-1.5,0-3,0-4.5c0-0.4-0.1-0.8-0.4-1.1
			c-0.3-0.3-0.7-0.5-1.2-0.5c-0.8,0-1.6,0.6-1.6,1.6c0,1.5,0,2.9,0,4.4v2.5c-0.4,0-0.8,0-1.1,0c-2.5,0-5,0.2-7.4,0.7l0-7.2
			c0-0.4-0.2-0.8-0.4-1.1c-0.3-0.3-0.7-0.5-1.2-0.5c-0.8,0-1.6,0.5-1.6,1.6l0,8c-6,1.8-10.4,4.9-12.4,8.8c-1.5,2.8-1.6,6-0.4,9.4
			c2.4,6.7,8,8.9,12.7,10.1l-0.1,25.3c-6.1-1.4-10.2-5.3-12.4-11.9c-0.2-0.7-0.8-1.1-1.6-1.1c-0.6,0-1.1,0.3-1.4,0.7
			c-0.3,0.4-0.3,0.9-0.2,1.3c2.7,8.2,7.8,12.9,15.6,14.3l0,14.6c0,0.4,0.2,0.8,0.4,1.1c0.3,0.3,0.7,0.5,1.2,0.5
			c0.8,0,1.6-0.5,1.6-1.6l0-14.2c1,0.1,1.9,0.1,2.9,0.1c1.4,0,2.9-0.1,4.4-0.2c0.8-0.1,1.6-0.2,2.4-0.3l0,0.9
			c0.2,4.4,0.3,8.8,0.6,13.3c0.1,1,0.9,1.6,1.7,1.6c0.5,0,0.9-0.2,1.2-0.5c0.3-0.3,0.4-0.7,0.4-1.1c-0.2-5-0.4-9.9-0.6-14.9
			c3.5-1,9.6-3.3,12.4-8.3c1.5-2.6,1.8-5.5,0.8-8.7C120.7,507.5,114.5,505.1,108.7,503.8z M109.4,528.7c-0.3-7.8-0.5-14.9-0.6-21.8
			c1.8,0.5,3.2,1.1,4.4,1.7c3.2,1.8,5.6,4.6,6.4,7.5c0.6,2.2,0.2,4.5-1,6.5C116.7,525.6,113.8,527.6,109.4,528.7z M102.3,502.6
			c-1.9-0.3-3.9-0.7-5.7-1.1l0-23.2c2.7-0.7,5.7-1.1,8.6-1.1h0c0,9.3,0.1,17.8,0.2,25.9C104.4,502.9,103.4,502.7,102.3,502.6z
			 M96.6,504.6c1.3,0.2,2.6,0.4,3.9,0.7c1.6,0.3,3.3,0.5,4.9,0.8c0.1,7.5,0.4,15.1,0.7,23.2c-1.2,0.2-2.3,0.3-3.4,0.4
			c-1.1,0.1-2.1,0.1-3.1,0.1c-1,0-2.1,0-3-0.1L96.6,504.6z M93.4,479.4l0,21.2c-0.4-0.1-0.8-0.2-1.1-0.4c-3.1-1.2-7.1-4-8.5-7.8
			c-0.7-2.1-0.5-4.2,0.7-6.2C86.4,482.8,90.3,480.6,93.4,479.4z"/>
		<path fill="#2B2B2B" d="M72.9,462.5c-0.3,0-0.6,0.1-0.9,0.3c-10.9,7-18.2,17.9-20.4,30.6c-0.1,0.5,0,1,0.3,1.4
			c0.4,0.4,0.9,0.7,1.4,0.7c0.7,0,1.3-0.5,1.4-1.2c2.1-11.9,8.8-22.1,18.9-28.6c0.6-0.4,0.9-1.1,0.7-1.8
			C74.2,463,73.6,462.5,72.9,462.5z"/>
		<path fill="#242424" d="M79.4,461.8c0.2-0.3,0.4-0.7,0.4-1.1c0-0.8-0.5-1.6-1.6-1.6c-0.5,0-0.9,0.2-1.2,0.5
			c-0.2,0.3-0.4,0.7-0.4,1.1c0,0.8,0.5,1.6,1.6,1.6C78.7,462.3,79.1,462.1,79.4,461.8z"/>
	</g>
	<g>
		<path fill="#2B2B2B" d="M283.1,441c-5.2,0-10.3,0.7-15.2,2c-26.9,7.1-48.1,36.5-46.3,64.2c1.4,11.6,7.5,24.9,16.7,36.4
			c8.6,10.8,19.8,17.4,34,20.2c5.3,1.1,12.4,2.3,19.3,2.3c7.6,0,14.2-1.4,20.5-4.3c11.1-5.2,20.8-13.7,27.2-24.1
			c12.8-20.6,10.2-50.3-6.3-72.4C321.7,450.3,302.6,441,283.1,441z M341.4,525.6c-3.8,10.8-11.5,20.7-21.6,27.8
			c-8.9,6.3-18.3,9.3-28.6,9.3c-2.1,0-4.3-0.1-6.5-0.4c-13.9-1.6-28.3-4.7-39.1-15.4c-11.1-11-19.2-26.7-20.9-39.9
			c-1.4-21.9,13.5-47,33.9-57.2c7.3-3.7,15.8-5.6,24.4-5.6c15,0,29.7,5.6,40.4,15.5C340.9,475.8,348.8,504.7,341.4,525.6z"/>
		<path fill="#B2C217" d="M340.9,525.8c-3.8,10.8-11.5,20.7-21.6,27.8c-8.9,6.3-18.3,9.3-28.6,9.3c-2.1,0-4.3-0.1-6.5-0.4
			c-13.9-1.6-28.3-4.7-39.1-15.4c-11-11-19.2-26.7-20.8-39.9c-1.4-21.9,13.5-47,33.9-57.2c7.3-3.7,15.8-5.6,24.4-5.6
			c15,0,29.7,5.6,40.4,15.5C340.5,475.9,348.3,504.9,340.9,525.8z"/>
		<path fill="#2B2B2B" d="M363.9,504.5c-1.7-22.4-7.3-39.4-17-51.9c-10.7-13.7-26.6-23.9-44.8-28.6c-6-1.4-12.1-2.1-18.1-2.1
			c-12,0-23.6,2.8-34.6,8.4c-11.1,5.6-30.9,17.8-39,36.1c-7.5,16.9-9.7,36.1-5.9,51.2c3.5,13.7,11.6,27.5,22.9,38.8
			c16.4,16.4,38.9,25.8,61.8,25.8l0,0c7.1,0,14.1-0.9,20.9-2.7C343.4,570.7,366.5,538.5,363.9,504.5z M360.9,513
			c-0.4,7.5-2.8,16.2-7.2,26.1c-6.6,14.8-17.6,26.1-31.8,32.7c-10.1,4.7-21,7.1-32.5,7.1c-17.8,0-35.5-5.9-49.9-16.5
			c-10.8-8-19.8-18.6-25.9-30.8c-7.6-15.1-9-30.5-4.4-49.9c2.8-11.8,6.5-19.7,12.5-26.3c5.6-6.2,12.8-12.1,21.3-17.5
			c13.2-8.3,27.1-12.6,41.5-12.6c5.6,0,11.3,0.7,16.9,1.9c15.6,4.1,29.3,12.2,39.7,23.5c9.2,10,15.1,23.4,18.1,40.9
			C360.2,498,361.3,505.7,360.9,513z"/>
		<path fill="#2B2B2B" d="M291.8,503.8c-0.1-8.2-0.2-16.9-0.2-26.4c3.8,0.4,8.7,1.9,11.4,6.2c0.3,0.5,0.8,0.8,1.3,0.8
			c0.6,0,1.2-0.4,1.5-0.9c0.3-0.5,0.2-1-0.1-1.5c-2.5-4-7.5-6.6-14.2-7.5v-2.6c0-1.5,0-3,0-4.5c0-0.4-0.1-0.8-0.4-1.1
			c-0.3-0.3-0.7-0.5-1.2-0.5c-0.8,0-1.6,0.6-1.6,1.6c0,1.5,0,2.9,0,4.4v2.5c-0.4,0-0.8,0-1.1,0c-2.5,0-5,0.2-7.4,0.7l0-7.2
			c0-0.4-0.1-0.8-0.4-1.1c-0.3-0.3-0.7-0.5-1.2-0.5c-0.8,0-1.6,0.5-1.6,1.6l0,8c-6,1.8-10.4,4.9-12.4,8.8c-1.5,2.8-1.6,6-0.4,9.4
			c2.4,6.7,8,8.9,12.7,10.1l-0.1,25.3c-6.1-1.4-10.2-5.3-12.4-11.9c-0.2-0.7-0.8-1.1-1.6-1.1c-0.6,0-1.1,0.3-1.4,0.7
			c-0.3,0.4-0.3,0.9-0.2,1.3c2.7,8.2,7.8,12.9,15.6,14.3l0,14.6c0,0.4,0.2,0.8,0.4,1.1c0.3,0.3,0.7,0.5,1.2,0.5
			c0.8,0,1.6-0.5,1.6-1.6l0-14.2c1,0.1,1.9,0.1,2.9,0.1c1.4,0,2.9-0.1,4.4-0.2c0.8-0.1,1.6-0.2,2.4-0.3l0,0.9
			c0.2,4.4,0.4,8.8,0.6,13.3c0.1,1,0.9,1.6,1.7,1.6c0.5,0,0.9-0.2,1.2-0.5c0.3-0.3,0.4-0.7,0.4-1.1c-0.2-5-0.4-9.9-0.6-14.9
			c3.5-1,9.6-3.3,12.4-8.3c1.5-2.6,1.8-5.5,0.8-8.7C303.7,507.5,297.6,505.1,291.8,503.8z M292.4,528.7c-0.3-7.8-0.5-14.9-0.6-21.8
			c1.8,0.5,3.2,1.1,4.4,1.7c3.2,1.8,5.6,4.6,6.4,7.5c0.6,2.2,0.3,4.5-1,6.5C299.8,525.6,296.8,527.6,292.4,528.7z M285.4,502.6
			c-1.9-0.3-3.8-0.7-5.7-1.1l0-23.2c2.7-0.7,5.7-1.1,8.5-1.1l0,0c0,9.3,0.1,17.8,0.2,25.9C287.4,502.9,286.4,502.7,285.4,502.6z
			 M279.7,504.6c1.3,0.2,2.6,0.4,3.9,0.7c1.6,0.3,3.3,0.5,4.9,0.8c0.1,7.5,0.4,15.1,0.7,23.2c-1.1,0.2-2.3,0.3-3.4,0.4
			c-1,0.1-2.1,0.1-3.1,0.1c-1,0-2.1,0-3-0.1L279.7,504.6z M276.5,479.4l0,21.2c-0.4-0.1-0.8-0.2-1.1-0.4c-3.1-1.2-7.1-4-8.5-7.8
			c-0.7-2.1-0.5-4.2,0.6-6.2C269.4,482.8,273.4,480.6,276.5,479.4z"/>
		<path fill="#2B2B2B" d="M256,462.5c-0.3,0-0.6,0.1-0.8,0.3c-10.9,7-18.2,17.9-20.4,30.6c-0.1,0.5,0,1,0.4,1.4
			c0.3,0.4,0.9,0.7,1.4,0.7c0.7,0,1.3-0.5,1.4-1.2c2.1-11.9,8.8-22.1,18.9-28.6c0.6-0.4,0.9-1.1,0.7-1.8
			C257.3,463,256.7,462.5,256,462.5z"/>
		<path fill="#242424" d="M262.4,461.8c0.2-0.3,0.4-0.7,0.4-1.1c0-0.8-0.5-1.6-1.6-1.6c-0.5,0-0.9,0.2-1.2,0.5
			c-0.2,0.3-0.4,0.7-0.4,1.1c0,0.8,0.5,1.6,1.6,1.6C261.7,462.3,262.1,462.1,262.4,461.8z"/>
	</g>
	<g>
		<path fill="#2B2B2B" d="M466.1,441c-5.2,0-10.3,0.7-15.2,2c-26.9,7.1-48.1,36.5-46.3,64.2c1.4,11.6,7.5,24.9,16.7,36.4
			c8.6,10.8,19.7,17.4,33.9,20.2c5.4,1.1,12.4,2.3,19.3,2.3c7.6,0,14.3-1.4,20.5-4.3c11.1-5.2,20.8-13.7,27.2-24.1
			c12.7-20.6,10.2-50.3-6.3-72.4C504.7,450.3,485.6,441,466.1,441z M524.4,525.6c-3.8,10.8-11.5,20.7-21.6,27.8
			c-8.9,6.3-18.3,9.3-28.6,9.3c-2.1,0-4.3-0.1-6.5-0.4c-13.9-1.6-28.3-4.7-39.1-15.4c-11-11-19.2-26.7-20.8-39.9
			c-1.4-21.9,13.5-47,33.9-57.2c7.3-3.7,15.8-5.6,24.4-5.6c14.9,0,29.7,5.6,40.4,15.5C524,475.8,531.8,504.7,524.4,525.6z"/>
		<path fill="#B2C217" d="M523.9,525.8c-3.8,10.8-11.5,20.7-21.6,27.8c-9,6.3-18.3,9.3-28.6,9.3c-2.1,0-4.3-0.1-6.5-0.4
			c-13.9-1.6-28.3-4.7-39.1-15.4c-11.1-11-19.2-26.7-20.8-39.9c-1.4-21.9,13.5-47,33.9-57.2c7.4-3.7,15.8-5.6,24.4-5.6
			c15,0,29.7,5.6,40.4,15.5C523.5,475.9,531.4,504.9,523.9,525.8z"/>
		<path fill="#2B2B2B" d="M547,504.5c-1.7-22.4-7.2-39.4-17-51.9c-10.7-13.7-26.6-23.9-44.8-28.6c-6-1.4-12.1-2.1-18.1-2.1
			c-12,0-23.6,2.8-34.6,8.4c-11.1,5.6-30.9,17.8-39,36.1c-7.5,16.9-9.7,36.1-5.9,51.2c3.5,13.7,11.6,27.5,22.9,38.8
			c16.4,16.4,38.9,25.8,61.8,25.8l0,0c7.1,0,14.1-0.9,20.9-2.7C526.4,570.7,549.5,538.5,547,504.5z M544,513
			c-0.4,7.5-2.8,16.2-7.2,26.1c-6.6,14.8-17.6,26.1-31.8,32.7c-10.1,4.7-21,7.1-32.5,7.1c-17.8,0-35.5-5.9-49.9-16.5
			c-10.8-8-19.8-18.6-25.9-30.8c-7.6-15.1-9-30.5-4.4-49.9c2.8-11.8,6.5-19.7,12.5-26.3c5.6-6.2,12.8-12.1,21.3-17.5
			c13.2-8.3,27.1-12.6,41.5-12.6c5.6,0,11.3,0.7,16.9,1.9c15.6,4.1,29.3,12.2,39.7,23.5c9.2,10,15.1,23.4,18.1,40.9
			C543.3,498,544.4,505.7,544,513z"/>
		<path fill="#2B2B2B" d="M474.8,503.8c-0.1-8.2-0.2-16.9-0.2-26.4c3.8,0.4,8.7,1.9,11.4,6.2c0.3,0.5,0.8,0.8,1.3,0.8
			c0.6,0,1.2-0.4,1.5-0.9c0.3-0.5,0.2-1-0.1-1.5c-2.5-4-7.5-6.6-14.2-7.5v-2.6c0-1.5,0-3,0-4.5c0-0.4-0.1-0.8-0.4-1.1
			c-0.3-0.3-0.7-0.5-1.2-0.5c-0.8,0-1.6,0.6-1.6,1.6c0,1.5,0,2.9,0,4.4v2.5c-0.4,0-0.8,0-1.2,0c-2.5,0-5,0.2-7.4,0.7l0-7.2
			c0-0.4-0.2-0.8-0.4-1.1c-0.3-0.3-0.7-0.5-1.2-0.5c-0.8,0-1.6,0.5-1.6,1.6l0,8c-6,1.8-10.4,4.9-12.4,8.8c-1.5,2.8-1.6,6-0.4,9.4
			c2.4,6.7,8,8.9,12.7,10.1l-0.1,25.3c-6.2-1.4-10.2-5.3-12.4-11.9c-0.2-0.7-0.8-1.1-1.6-1.1c-0.6,0-1.1,0.3-1.4,0.7
			c-0.3,0.4-0.3,0.9-0.2,1.3c2.7,8.2,7.8,12.9,15.6,14.3l0,14.6c0,0.4,0.1,0.8,0.4,1.1c0.3,0.3,0.7,0.5,1.2,0.5
			c0.8,0,1.6-0.5,1.6-1.6l0-14.2c0.9,0.1,1.9,0.1,2.9,0.1c1.4,0,2.8-0.1,4.4-0.2c0.8-0.1,1.6-0.2,2.4-0.3l0,0.9
			c0.2,4.4,0.3,8.8,0.6,13.3c0,1,0.9,1.6,1.7,1.6c0.5,0,0.9-0.2,1.2-0.5c0.3-0.3,0.4-0.7,0.4-1.1c-0.2-5-0.4-9.9-0.6-14.9
			c3.5-1,9.6-3.3,12.4-8.3c1.5-2.6,1.8-5.5,0.8-8.7C486.8,507.5,480.6,505.1,474.8,503.8z M475.5,528.7c-0.3-7.8-0.5-14.9-0.6-21.8
			c1.8,0.5,3.2,1.1,4.4,1.7c3.2,1.8,5.6,4.6,6.4,7.5c0.6,2.2,0.2,4.5-1,6.5C482.8,525.6,479.8,527.6,475.5,528.7z M468.4,502.6
			c-1.9-0.3-3.9-0.7-5.7-1.1l0-23.2c2.7-0.7,5.7-1.1,8.5-1.1h0c0,9.3,0.1,17.8,0.2,25.9C470.5,502.9,469.4,502.7,468.4,502.6z
			 M462.7,504.6c1.3,0.2,2.6,0.4,3.9,0.7c1.7,0.3,3.3,0.5,4.9,0.8c0.1,7.5,0.4,15.1,0.7,23.2c-1.2,0.2-2.3,0.3-3.4,0.4
			c-1.1,0.1-2.1,0.1-3.1,0.1c-1,0-2.1,0-3-0.1L462.7,504.6z M459.5,479.4l0,21.2c-0.4-0.1-0.8-0.2-1.1-0.4c-3.1-1.2-7.1-4-8.5-7.8
			c-0.7-2.1-0.5-4.2,0.6-6.2C452.5,482.8,456.4,480.6,459.5,479.4z"/>
		<path fill="#2B2B2B" d="M439,462.5c-0.3,0-0.6,0.1-0.8,0.3c-10.9,7-18.2,17.9-20.4,30.6c-0.1,0.5,0,1,0.4,1.4
			c0.3,0.4,0.9,0.7,1.4,0.7c0.7,0,1.3-0.5,1.4-1.2c2.1-11.9,8.8-22.1,18.9-28.6c0.6-0.4,0.9-1.1,0.7-1.8
			C440.3,463,439.7,462.5,439,462.5z"/>
		<path fill="#242424" d="M445.5,461.8c0.3-0.3,0.4-0.7,0.4-1.1c0-0.8-0.5-1.6-1.6-1.6c-0.5,0-0.9,0.2-1.2,0.5
			c-0.3,0.3-0.4,0.7-0.4,1.1c0,0.8,0.5,1.6,1.6,1.6C444.8,462.3,445.2,462.1,445.5,461.8z"/>
	</g>
	<g>
		<path fill="#2B2B2B" d="M649.1,441c-5.2,0-10.3,0.7-15.2,2c-26.9,7.1-48.1,36.5-46.3,64.2c1.4,11.6,7.5,24.9,16.7,36.4
			c8.6,10.8,19.7,17.4,34,20.2c5.3,1.1,12.4,2.3,19.3,2.3c7.5,0,14.2-1.4,20.5-4.3c11.1-5.2,20.8-13.7,27.2-24.1
			c12.7-20.6,10.2-50.3-6.3-72.4C687.8,450.3,668.7,441,649.1,441z M707.5,525.6c-3.9,10.8-11.5,20.7-21.6,27.8
			c-8.9,6.3-18.3,9.3-28.5,9.3c-2.1,0-4.3-0.1-6.5-0.4c-13.9-1.6-28.3-4.7-39.1-15.4c-11-11-19.2-26.7-20.8-39.9
			c-1.4-21.9,13.5-47,33.9-57.2c7.3-3.7,15.8-5.6,24.4-5.6c15,0,29.7,5.6,40.4,15.5C707,475.8,714.9,504.7,707.5,525.6z"/>
		<path fill="#2B2B2B" d="M730,504.5c-1.7-22.4-7.2-39.4-17-51.9c-10.7-13.7-26.6-23.9-44.8-28.6c-6-1.4-12.1-2.1-18.1-2.1
			c-12,0-23.6,2.8-34.6,8.4c-11.1,5.6-30.9,17.8-39,36.1c-7.5,16.9-9.7,36.1-5.9,51.2c3.5,13.7,11.6,27.5,22.9,38.8
			c16.4,16.4,38.9,25.8,61.8,25.8l0,0c7.1,0,14.1-0.9,20.9-2.7C709.5,570.7,732.6,538.5,730,504.5z M727.1,513
			c-0.4,7.5-2.8,16.2-7.2,26.1c-6.6,14.8-17.6,26.1-31.8,32.7c-10.1,4.7-21,7.1-32.5,7.1c-17.8,0-35.5-5.9-49.9-16.5
			c-10.8-8-19.8-18.6-25.9-30.8c-7.6-15.1-9-30.5-4.4-49.9c2.8-11.8,6.5-19.7,12.5-26.3c5.6-6.2,12.8-12.1,21.3-17.5
			c13.2-8.3,27.1-12.6,41.5-12.6c5.6,0,11.3,0.7,16.9,1.9c15.6,4.1,29.3,12.2,39.7,23.5c9.2,10,15.1,23.4,18.1,40.9
			C726.3,498,727.4,505.7,727.1,513z"/>
		<path fill="#2B2B2B" d="M657.9,503.8c-0.1-8.2-0.2-16.9-0.2-26.4c3.7,0.4,8.7,1.9,11.4,6.2c0.3,0.5,0.8,0.8,1.3,0.8
			c0.6,0,1.2-0.4,1.5-0.9c0.3-0.5,0.2-1-0.1-1.5c-2.5-4-7.5-6.6-14.2-7.5v-2.6c0-1.5,0-3,0-4.5c0-0.4-0.1-0.8-0.4-1.1
			c-0.3-0.3-0.7-0.5-1.2-0.5c-0.8,0-1.6,0.6-1.7,1.6c0,1.5,0,2.9,0,4.4v2.5c-0.4,0-0.8,0-1.2,0c-2.5,0-5,0.2-7.4,0.7l0-7.2
			c0-0.4-0.2-0.8-0.4-1.1c-0.3-0.3-0.7-0.5-1.2-0.5c-0.8,0-1.6,0.5-1.6,1.6l0,8c-6,1.8-10.4,4.9-12.4,8.8c-1.5,2.8-1.6,6-0.4,9.4
			c2.4,6.7,8,8.9,12.7,10.1l-0.1,25.3c-6.1-1.4-10.2-5.3-12.4-11.9c-0.2-0.7-0.8-1.1-1.6-1.1c-0.6,0-1.1,0.3-1.4,0.7
			c-0.3,0.4-0.3,0.9-0.2,1.3c2.7,8.2,7.8,12.9,15.5,14.3l0,14.6c0,0.4,0.2,0.8,0.4,1.1c0.3,0.3,0.7,0.5,1.2,0.5
			c0.8,0,1.6-0.5,1.6-1.6l0-14.2c1,0.1,1.9,0.1,2.9,0.1c1.4,0,2.9-0.1,4.4-0.2c0.8-0.1,1.6-0.2,2.4-0.3l0,0.9
			c0.2,4.4,0.3,8.8,0.6,13.3c0.1,1,0.9,1.6,1.7,1.6c0.5,0,0.9-0.2,1.2-0.5c0.3-0.3,0.4-0.7,0.4-1.1c-0.2-5-0.4-9.9-0.6-14.9
			c3.5-1,9.6-3.3,12.4-8.3c1.5-2.6,1.7-5.5,0.8-8.7C669.8,507.5,663.7,505.1,657.9,503.8z M658.5,528.7c-0.3-7.8-0.5-14.9-0.6-21.8
			c1.8,0.5,3.2,1.1,4.4,1.7c3.2,1.8,5.6,4.6,6.4,7.5c0.6,2.2,0.2,4.5-1,6.5C665.9,525.6,662.9,527.6,658.5,528.7z M651.4,502.6
			c-1.9-0.3-3.9-0.7-5.7-1.1l0-23.2c2.8-0.7,5.7-1.1,8.6-1.1h0c0,9.3,0.1,17.8,0.2,25.9C653.5,502.9,652.5,502.7,651.4,502.6z
			 M645.8,504.6c1.3,0.2,2.6,0.4,3.9,0.7c1.7,0.3,3.3,0.5,4.9,0.8c0.2,7.5,0.4,15.1,0.7,23.2c-1.2,0.2-2.3,0.3-3.4,0.4
			c-1.1,0.1-2.1,0.1-3.1,0.1c-1,0-2.1,0-3.1-0.1L645.8,504.6z M642.6,479.4l0,21.2c-0.4-0.1-0.8-0.2-1.1-0.4c-3.1-1.2-7.1-4-8.5-7.8
			c-0.7-2.1-0.5-4.2,0.6-6.2C635.5,482.8,639.5,480.6,642.6,479.4z"/>
		<path fill="#2B2B2B" d="M622.1,462.5c-0.3,0-0.6,0.1-0.9,0.3c-10.9,7-18.2,17.9-20.4,30.6c-0.1,0.5,0,1,0.4,1.4
			c0.4,0.4,0.9,0.7,1.4,0.7c0.7,0,1.3-0.5,1.4-1.2c2.1-11.9,8.8-22.1,18.9-28.6c0.6-0.4,0.9-1.1,0.7-1.8
			C623.4,463,622.8,462.5,622.1,462.5z"/>
		<path fill="#242424" d="M628.5,461.8c0.3-0.3,0.4-0.7,0.4-1.1c0-0.8-0.5-1.6-1.6-1.6c-0.5,0-0.9,0.2-1.2,0.5
			c-0.3,0.3-0.4,0.7-0.4,1.1c0,0.8,0.5,1.6,1.6,1.6C627.8,462.3,628.2,462.1,628.5,461.8z"/>
	</g>
	<g>
		<path fill="#2B2B2B" d="M832.2,441c-5.2,0-10.3,0.7-15.2,2c-26.9,7.1-48.1,36.5-46.3,64.2c1.4,11.6,7.5,24.9,16.7,36.4
			c8.6,10.8,19.8,17.4,34,20.2c5.3,1.1,12.4,2.3,19.3,2.3c7.6,0,14.3-1.4,20.5-4.3c11.1-5.2,20.8-13.7,27.2-24.1
			c12.7-20.6,10.2-50.3-6.3-72.4C870.8,450.3,851.7,441,832.2,441z M890.5,525.6c-3.8,10.8-11.5,20.7-21.6,27.8
			c-8.9,6.3-18.3,9.3-28.6,9.3c-2.1,0-4.3-0.1-6.5-0.4c-13.9-1.6-28.3-4.7-39.1-15.4c-11.1-11-19.2-26.7-20.8-39.9
			c-1.4-21.9,13.5-47,33.9-57.2c7.3-3.7,15.8-5.6,24.4-5.6c15,0,29.7,5.6,40.4,15.5C890.1,475.8,897.9,504.7,890.5,525.6z"/>
		<path fill="#2B2B2B" d="M913.1,504.5c-1.7-22.4-7.2-39.4-17-51.9c-10.7-13.7-26.6-23.9-44.8-28.6c-6-1.4-12.1-2.1-18.1-2.1
			c-12,0-23.6,2.8-34.6,8.4c-11.1,5.6-30.9,17.8-39,36.1c-7.5,16.9-9.7,36.1-5.9,51.2c3.5,13.7,11.6,27.5,22.9,38.8
			c16.4,16.4,38.9,25.8,61.8,25.8l0,0c7.1,0,14.1-0.9,20.9-2.7C892.5,570.7,915.6,538.5,913.1,504.5z M910.1,513
			c-0.4,7.5-2.8,16.2-7.2,26.1c-6.6,14.8-17.6,26.1-31.8,32.7c-10.1,4.7-21,7.1-32.5,7.1c-17.8,0-35.5-5.9-49.9-16.5
			c-10.8-8-19.8-18.6-25.9-30.8c-7.6-15.1-9-30.5-4.4-49.9c2.8-11.8,6.5-19.7,12.5-26.3c5.6-6.2,12.8-12.1,21.3-17.5
			c13.2-8.3,27.1-12.6,41.5-12.6c5.6,0,11.3,0.7,16.9,1.9c15.6,4.1,29.3,12.2,39.7,23.5c9.2,10,15.1,23.4,18.1,40.9
			C909.4,498,910.5,505.7,910.1,513z"/>
		<path fill="#2B2B2B" d="M840.9,503.8c-0.1-8.2-0.2-16.9-0.2-26.4c3.8,0.4,8.7,1.9,11.4,6.2c0.3,0.5,0.8,0.8,1.3,0.8
			c0.6,0,1.2-0.4,1.5-0.9c0.3-0.5,0.2-1-0.1-1.5c-2.5-4-7.5-6.6-14.2-7.5v-2.6c0-1.5,0-3,0-4.5c0-0.4-0.2-0.8-0.4-1.1
			c-0.3-0.3-0.7-0.5-1.2-0.5c-0.8,0-1.6,0.6-1.6,1.6c0,1.5,0,2.9,0,4.4v2.5c-0.4,0-0.8,0-1.2,0c-2.5,0-5,0.2-7.4,0.7l0-7.2
			c0-0.4-0.2-0.8-0.4-1.1c-0.3-0.3-0.7-0.5-1.2-0.5c-0.8,0-1.6,0.5-1.6,1.6l0,8c-6,1.8-10.4,4.9-12.4,8.8c-1.5,2.8-1.6,6-0.4,9.4
			c2.4,6.7,8,8.9,12.7,10.1l-0.1,25.3c-6.1-1.4-10.2-5.3-12.4-11.9c-0.2-0.7-0.8-1.1-1.6-1.1c-0.6,0-1.1,0.3-1.4,0.7
			c-0.3,0.4-0.3,0.9-0.2,1.3c2.7,8.2,7.8,12.9,15.5,14.3l0,14.6c0,0.4,0.2,0.8,0.4,1.1c0.3,0.3,0.7,0.5,1.2,0.5
			c0.8,0,1.6-0.5,1.6-1.6l0-14.2c0.9,0.1,1.9,0.1,2.9,0.1c1.4,0,2.9-0.1,4.4-0.2c0.8-0.1,1.6-0.2,2.4-0.3l0,0.9
			c0.2,4.4,0.3,8.8,0.6,13.3c0.1,1,0.9,1.6,1.7,1.6c0.5,0,0.9-0.2,1.2-0.5c0.3-0.3,0.4-0.7,0.4-1.1c-0.2-5-0.4-9.9-0.6-14.9
			c3.5-1,9.6-3.3,12.4-8.3c1.5-2.6,1.8-5.5,0.9-8.7C852.9,507.5,846.7,505.1,840.9,503.8z M841.6,528.7c-0.3-7.8-0.5-14.9-0.6-21.8
			c1.8,0.5,3.2,1.1,4.4,1.7c3.2,1.8,5.6,4.6,6.4,7.5c0.6,2.2,0.3,4.5-1,6.5C848.9,525.6,845.9,527.6,841.6,528.7z M834.5,502.6
			c-1.9-0.3-3.9-0.7-5.7-1.1l0-23.2c2.8-0.7,5.7-1.1,8.6-1.1h0c0,9.3,0.1,17.8,0.2,25.9C836.6,502.9,835.5,502.7,834.5,502.6z
			 M828.8,504.6c1.3,0.2,2.6,0.4,3.9,0.7c1.7,0.3,3.3,0.5,4.9,0.8c0.1,7.5,0.4,15.1,0.7,23.2c-1.2,0.2-2.3,0.3-3.4,0.4
			c-1.1,0.1-2.1,0.1-3.1,0.1c-1,0-2.1,0-3-0.1L828.8,504.6z M825.6,479.4l0,21.2c-0.4-0.1-0.8-0.2-1.1-0.4c-3.1-1.2-7.2-4-8.5-7.8
			c-0.7-2.1-0.5-4.2,0.6-6.2C818.6,482.8,822.5,480.6,825.6,479.4z"/>
		<path fill="#2B2B2B" d="M805.1,462.5c-0.3,0-0.6,0.1-0.9,0.3c-10.9,7-18.2,17.9-20.4,30.6c-0.1,0.5,0,1,0.4,1.4
			c0.3,0.4,0.9,0.7,1.4,0.7c0.7,0,1.3-0.5,1.4-1.2c2.1-11.9,8.8-22.1,18.9-28.6c0.6-0.4,0.9-1.1,0.7-1.8
			C806.4,463,805.8,462.5,805.1,462.5z"/>
		<path fill="#242424" d="M811.6,461.8c0.3-0.3,0.4-0.7,0.4-1.1c0-0.8-0.5-1.6-1.6-1.6c-0.5,0-0.9,0.2-1.2,0.5
			c-0.3,0.3-0.4,0.7-0.4,1.1c0,0.8,0.5,1.6,1.6,1.6C810.9,462.3,811.3,462.1,811.6,461.8z"/>
	</g>
</g>
<g>
	<g>
		<path fill="#2B2B2B" d="M100,636.7c-5.2,0-10.3,0.7-15.2,2c-26.9,7.1-48.1,36.5-46.3,64.2c1.4,11.6,7.5,24.9,16.7,36.4
			c8.6,10.8,19.8,17.4,33.9,20.2c5.4,1.1,12.4,2.3,19.3,2.3c7.6,0,14.2-1.4,20.5-4.3c11.1-5.2,20.8-13.7,27.2-24.1
			c12.8-20.6,10.2-50.3-6.3-72.4C138.6,646,119.5,636.7,100,636.7z M158.3,721.4c-3.8,10.8-11.5,20.7-21.6,27.8
			c-8.9,6.3-18.3,9.3-28.6,9.3c-2.1,0-4.3-0.1-6.5-0.4c-13.9-1.6-28.3-4.7-39.1-15.4c-11.1-11-19.2-26.7-20.8-39.9
			c-1.4-21.9,13.5-47,33.9-57.2c7.4-3.7,15.8-5.6,24.4-5.6c15,0,29.7,5.6,40.4,15.5C157.9,671.5,165.8,700.5,158.3,721.4z"/>
		<path fill="#B2C217" d="M157.9,721.5c-3.8,10.8-11.5,20.7-21.6,27.8c-8.9,6.3-18.3,9.3-28.6,9.3c-2.1,0-4.3-0.1-6.5-0.4
			c-13.9-1.6-28.3-4.7-39.1-15.4c-11.1-11-19.2-26.7-20.8-39.9c-1.4-21.9,13.5-47,33.9-57.2c7.3-3.7,15.8-5.6,24.4-5.6
			c15,0,29.7,5.6,40.4,15.5C157.4,671.7,165.3,700.6,157.9,721.5z"/>
		<path fill="#2B2B2B" d="M180.9,700.2c-1.7-22.4-7.2-39.4-17-51.9c-10.7-13.7-26.6-23.9-44.8-28.6c-6-1.4-12.1-2.1-18.1-2.1
			c-12,0-23.6,2.8-34.6,8.4c-11.1,5.6-30.9,17.8-39,36.1c-7.5,16.9-9.7,36.1-5.9,51.2c3.5,13.7,11.6,27.5,22.9,38.8
			c16.4,16.4,38.9,25.8,61.8,25.8l0,0c7.1,0,14.1-0.9,20.9-2.7C160.3,766.4,183.4,734.2,180.9,700.2z M177.9,708.7
			c-0.4,7.5-2.8,16.2-7.2,26.1c-6.6,14.8-17.6,26.1-31.8,32.7c-10.1,4.7-21,7.1-32.5,7.1c-17.8,0-35.5-5.9-49.9-16.5
			c-10.8-8-19.8-18.6-25.9-30.8c-7.6-15.1-9-30.5-4.4-49.9c2.8-11.8,6.5-19.7,12.5-26.3c5.6-6.2,12.8-12.1,21.3-17.5
			c13.2-8.3,27.1-12.6,41.5-12.6c5.6,0,11.3,0.7,16.9,1.9c15.6,4.1,29.3,12.2,39.7,23.5c9.2,10,15.1,23.4,18.1,40.9
			C177.2,693.7,178.3,701.4,177.9,708.7z"/>
		<path fill="#2B2B2B" d="M108.7,699.5c-0.1-8.2-0.2-16.9-0.2-26.4c3.8,0.4,8.7,1.9,11.3,6.2c0.3,0.5,0.8,0.8,1.4,0.8
			c0.6,0,1.2-0.4,1.5-0.9c0.3-0.5,0.2-1-0.1-1.5c-2.5-4-7.5-6.6-14.2-7.5v-2.6c0-1.5,0-3,0-4.5c0-0.4-0.1-0.8-0.4-1.1
			c-0.3-0.3-0.7-0.5-1.2-0.5c-0.8,0-1.6,0.6-1.6,1.6c0,1.5,0,2.9,0,4.4v2.5c-0.4,0-0.8,0-1.1,0c-2.5,0-5,0.2-7.4,0.7l0-7.2
			c0-0.4-0.2-0.8-0.4-1.1c-0.3-0.3-0.7-0.5-1.2-0.5c-0.8,0-1.6,0.5-1.6,1.6l0,8c-6,1.8-10.4,4.9-12.4,8.8c-1.5,2.8-1.6,6-0.4,9.4
			c2.4,6.7,8,8.9,12.7,10.1L93.3,725c-6.1-1.4-10.2-5.3-12.4-11.9c-0.2-0.7-0.8-1.1-1.6-1.1c-0.6,0-1.1,0.3-1.4,0.7
			c-0.3,0.4-0.3,0.9-0.2,1.3c2.7,8.2,7.8,12.9,15.6,14.3l0,14.6c0,0.4,0.2,0.8,0.4,1.1c0.3,0.3,0.7,0.5,1.2,0.5
			c0.8,0,1.6-0.5,1.6-1.6l0-14.2c1,0.1,1.9,0.1,2.9,0.1c1.4,0,2.9-0.1,4.4-0.2c0.8-0.1,1.6-0.2,2.4-0.3l0,0.9
			c0.2,4.4,0.3,8.8,0.6,13.3c0.1,1,0.9,1.6,1.7,1.6c0.5,0,0.9-0.2,1.2-0.5c0.3-0.3,0.4-0.7,0.4-1.1c-0.2-5-0.4-9.9-0.6-14.9
			c3.5-1,9.6-3.3,12.4-8.3c1.5-2.6,1.8-5.5,0.8-8.7C120.7,703.3,114.5,700.9,108.7,699.5z M109.4,724.5c-0.3-7.8-0.5-14.9-0.6-21.8
			c1.8,0.5,3.2,1.1,4.4,1.7c3.2,1.8,5.6,4.6,6.4,7.5c0.6,2.2,0.2,4.5-1,6.5C116.7,721.4,113.8,723.3,109.4,724.5z M102.3,698.3
			c-1.9-0.3-3.9-0.7-5.7-1.1l0-23.2c2.7-0.7,5.7-1.1,8.6-1.1h0c0,9.3,0.1,17.8,0.2,25.9C104.4,698.6,103.4,698.5,102.3,698.3z
			 M96.6,700.4c1.3,0.2,2.6,0.4,3.9,0.7c1.6,0.3,3.3,0.5,4.9,0.8c0.1,7.5,0.4,15.1,0.7,23.2c-1.2,0.2-2.3,0.3-3.4,0.4
			c-1.1,0.1-2.1,0.1-3.1,0.1c-1,0-2.1,0-3-0.1L96.6,700.4z M93.4,675.1l0,21.2c-0.4-0.1-0.8-0.2-1.1-0.4c-3.1-1.2-7.1-4-8.5-7.8
			c-0.7-2.1-0.5-4.2,0.7-6.2C86.4,678.5,90.3,676.3,93.4,675.1z"/>
		<path fill="#2B2B2B" d="M72.9,658.2c-0.3,0-0.6,0.1-0.9,0.3c-10.9,7-18.2,17.9-20.4,30.6c-0.1,0.5,0,1,0.3,1.4
			c0.4,0.4,0.9,0.7,1.4,0.7c0.7,0,1.3-0.5,1.4-1.2c2.1-11.9,8.8-22.1,18.9-28.6c0.6-0.4,0.9-1.1,0.7-1.8
			C74.2,658.7,73.6,658.2,72.9,658.2z"/>
		<path fill="#242424" d="M79.4,657.5c0.2-0.3,0.4-0.7,0.4-1.1c0-0.8-0.5-1.6-1.6-1.6c-0.5,0-0.9,0.2-1.2,0.5
			c-0.2,0.3-0.4,0.7-0.4,1.1c0,0.8,0.5,1.6,1.6,1.6C78.7,658,79.1,657.8,79.4,657.5z"/>
	</g>
	<g>
		<path fill="#2B2B2B" d="M283.1,636.7c-5.2,0-10.3,0.7-15.2,2c-26.9,7.1-48.1,36.5-46.3,64.2c1.4,11.6,7.5,24.9,16.7,36.4
			c8.6,10.8,19.8,17.4,34,20.2c5.3,1.1,12.4,2.3,19.3,2.3c7.6,0,14.2-1.4,20.5-4.3c11.1-5.2,20.8-13.7,27.2-24.1
			c12.8-20.6,10.2-50.3-6.3-72.4C321.7,646,302.6,636.7,283.1,636.7z M341.4,721.4c-3.8,10.8-11.5,20.7-21.6,27.8
			c-8.9,6.3-18.3,9.3-28.6,9.3c-2.1,0-4.3-0.1-6.5-0.4c-13.9-1.6-28.3-4.7-39.1-15.4c-11.1-11-19.2-26.7-20.9-39.9
			c-1.4-21.9,13.5-47,33.9-57.2c7.3-3.7,15.8-5.6,24.4-5.6c15,0,29.7,5.6,40.4,15.5C340.9,671.5,348.8,700.5,341.4,721.4z"/>
		<path fill="#B2C217" d="M340.9,721.5c-3.8,10.8-11.5,20.7-21.6,27.8c-8.9,6.3-18.3,9.3-28.6,9.3c-2.1,0-4.3-0.1-6.5-0.4
			c-13.9-1.6-28.3-4.7-39.1-15.4c-11-11-19.2-26.7-20.8-39.9c-1.4-21.9,13.5-47,33.9-57.2c7.3-3.7,15.8-5.6,24.4-5.6
			c15,0,29.7,5.6,40.4,15.5C340.5,671.7,348.3,700.6,340.9,721.5z"/>
		<path fill="#2B2B2B" d="M363.9,700.2c-1.7-22.4-7.3-39.4-17-51.9c-10.7-13.7-26.6-23.9-44.8-28.6c-6-1.4-12.1-2.1-18.1-2.1
			c-12,0-23.6,2.8-34.6,8.4c-11.1,5.6-30.9,17.8-39,36.1c-7.5,16.9-9.7,36.1-5.9,51.2c3.5,13.7,11.6,27.5,22.9,38.8
			c16.4,16.4,38.9,25.8,61.8,25.8l0,0c7.1,0,14.1-0.9,20.9-2.7C343.4,766.4,366.5,734.2,363.9,700.2z M360.9,708.7
			c-0.4,7.5-2.8,16.2-7.2,26.1c-6.6,14.8-17.6,26.1-31.8,32.7c-10.1,4.7-21,7.1-32.5,7.1c-17.8,0-35.5-5.9-49.9-16.5
			c-10.8-8-19.8-18.6-25.9-30.8c-7.6-15.1-9-30.5-4.4-49.9c2.8-11.8,6.5-19.7,12.5-26.3c5.6-6.2,12.8-12.1,21.3-17.5
			c13.2-8.3,27.1-12.6,41.5-12.6c5.6,0,11.3,0.7,16.9,1.9c15.6,4.1,29.3,12.2,39.7,23.5c9.2,10,15.1,23.4,18.1,40.9
			C360.2,693.7,361.3,701.4,360.9,708.7z"/>
		<path fill="#2B2B2B" d="M291.8,699.5c-0.1-8.2-0.2-16.9-0.2-26.4c3.8,0.4,8.7,1.9,11.4,6.2c0.3,0.5,0.8,0.8,1.3,0.8
			c0.6,0,1.2-0.4,1.5-0.9c0.3-0.5,0.2-1-0.1-1.5c-2.5-4-7.5-6.6-14.2-7.5v-2.6c0-1.5,0-3,0-4.5c0-0.4-0.1-0.8-0.4-1.1
			c-0.3-0.3-0.7-0.5-1.2-0.5c-0.8,0-1.6,0.6-1.6,1.6c0,1.5,0,2.9,0,4.4v2.5c-0.4,0-0.8,0-1.1,0c-2.5,0-5,0.2-7.4,0.7l0-7.2
			c0-0.4-0.1-0.8-0.4-1.1c-0.3-0.3-0.7-0.5-1.2-0.5c-0.8,0-1.6,0.5-1.6,1.6l0,8c-6,1.8-10.4,4.9-12.4,8.8c-1.5,2.8-1.6,6-0.4,9.4
			c2.4,6.7,8,8.9,12.7,10.1l-0.1,25.3c-6.1-1.4-10.2-5.3-12.4-11.9c-0.2-0.7-0.8-1.1-1.6-1.1c-0.6,0-1.1,0.3-1.4,0.7
			c-0.3,0.4-0.3,0.9-0.2,1.3c2.7,8.2,7.8,12.9,15.6,14.3l0,14.6c0,0.4,0.2,0.8,0.4,1.1c0.3,0.3,0.7,0.5,1.2,0.5
			c0.8,0,1.6-0.5,1.6-1.6l0-14.2c1,0.1,1.9,0.1,2.9,0.1c1.4,0,2.9-0.1,4.4-0.2c0.8-0.1,1.6-0.2,2.4-0.3l0,0.9
			c0.2,4.4,0.4,8.8,0.6,13.3c0.1,1,0.9,1.6,1.7,1.6c0.5,0,0.9-0.2,1.2-0.5c0.3-0.3,0.4-0.7,0.4-1.1c-0.2-5-0.4-9.9-0.6-14.9
			c3.5-1,9.6-3.3,12.4-8.3c1.5-2.6,1.8-5.5,0.8-8.7C303.7,703.3,297.6,700.9,291.8,699.5z M292.4,724.5c-0.3-7.8-0.5-14.9-0.6-21.8
			c1.8,0.5,3.2,1.1,4.4,1.7c3.2,1.8,5.6,4.6,6.4,7.5c0.6,2.2,0.3,4.5-1,6.5C299.8,721.4,296.8,723.3,292.4,724.5z M285.4,698.3
			c-1.9-0.3-3.8-0.7-5.7-1.1l0-23.2c2.7-0.7,5.7-1.1,8.5-1.1l0,0c0,9.3,0.1,17.8,0.2,25.9C287.4,698.6,286.4,698.5,285.4,698.3z
			 M279.7,700.4c1.3,0.2,2.6,0.4,3.9,0.7c1.6,0.3,3.3,0.5,4.9,0.8c0.1,7.5,0.4,15.1,0.7,23.2c-1.1,0.2-2.3,0.3-3.4,0.4
			c-1,0.1-2.1,0.1-3.1,0.1c-1,0-2.1,0-3-0.1L279.7,700.4z M276.5,675.1l0,21.2c-0.4-0.1-0.8-0.2-1.1-0.4c-3.1-1.2-7.1-4-8.5-7.8
			c-0.7-2.1-0.5-4.2,0.6-6.2C269.4,678.5,273.4,676.3,276.5,675.1z"/>
		<path fill="#2B2B2B" d="M256,658.2c-0.3,0-0.6,0.1-0.8,0.3c-10.9,7-18.2,17.9-20.4,30.6c-0.1,0.5,0,1,0.4,1.4
			c0.3,0.4,0.9,0.7,1.4,0.7c0.7,0,1.3-0.5,1.4-1.2c2.1-11.9,8.8-22.1,18.9-28.6c0.6-0.4,0.9-1.1,0.7-1.8
			C257.3,658.7,256.7,658.2,256,658.2z"/>
		<path fill="#242424" d="M262.4,657.5c0.2-0.3,0.4-0.7,0.4-1.1c0-0.8-0.5-1.6-1.6-1.6c-0.5,0-0.9,0.2-1.2,0.5
			c-0.2,0.3-0.4,0.7-0.4,1.1c0,0.8,0.5,1.6,1.6,1.6C261.7,658,262.1,657.8,262.4,657.5z"/>
	</g>
	<g>
		<path fill="#2B2B2B" d="M466.1,636.7c-5.2,0-10.3,0.7-15.2,2c-26.9,7.1-48.1,36.5-46.3,64.2c1.4,11.6,7.5,24.9,16.7,36.4
			c8.6,10.8,19.7,17.4,33.9,20.2c5.4,1.1,12.4,2.3,19.3,2.3c7.6,0,14.3-1.4,20.5-4.3c11.1-5.2,20.8-13.7,27.2-24.1
			c12.7-20.6,10.2-50.3-6.3-72.4C504.7,646,485.6,636.7,466.1,636.7z M524.4,721.4c-3.8,10.8-11.5,20.7-21.6,27.8
			c-8.9,6.3-18.3,9.3-28.6,9.3c-2.1,0-4.3-0.1-6.5-0.4c-13.9-1.6-28.3-4.7-39.1-15.4c-11-11-19.2-26.7-20.8-39.9
			c-1.4-21.9,13.5-47,33.9-57.2c7.3-3.7,15.8-5.6,24.4-5.6c14.9,0,29.7,5.6,40.4,15.5C524,671.5,531.8,700.5,524.4,721.4z"/>
		<path fill="#2B2B2B" d="M547,700.2c-1.7-22.4-7.2-39.4-17-51.9c-10.7-13.7-26.6-23.9-44.8-28.6c-6-1.4-12.1-2.1-18.1-2.1
			c-12,0-23.6,2.8-34.6,8.4c-11.1,5.6-30.9,17.8-39,36.1c-7.5,16.9-9.7,36.1-5.9,51.2c3.5,13.7,11.6,27.5,22.9,38.8
			c16.4,16.4,38.9,25.8,61.8,25.8l0,0c7.1,0,14.1-0.9,20.9-2.7C526.4,766.4,549.5,734.2,547,700.2z M544,708.7
			c-0.4,7.5-2.8,16.2-7.2,26.1c-6.6,14.8-17.6,26.1-31.8,32.7c-10.1,4.7-21,7.1-32.5,7.1c-17.8,0-35.5-5.9-49.9-16.5
			c-10.8-8-19.8-18.6-25.9-30.8c-7.6-15.1-9-30.5-4.4-49.9c2.8-11.8,6.5-19.7,12.5-26.3c5.6-6.2,12.8-12.1,21.3-17.5
			c13.2-8.3,27.1-12.6,41.5-12.6c5.6,0,11.3,0.7,16.9,1.9c15.6,4.1,29.3,12.2,39.7,23.5c9.2,10,15.1,23.4,18.1,40.9
			C543.3,693.7,544.4,701.4,544,708.7z"/>
		<path fill="#2B2B2B" d="M474.8,699.5c-0.1-8.2-0.2-16.9-0.2-26.4c3.8,0.4,8.7,1.9,11.4,6.2c0.3,0.5,0.8,0.8,1.3,0.8
			c0.6,0,1.2-0.4,1.5-0.9c0.3-0.5,0.2-1-0.1-1.5c-2.5-4-7.5-6.6-14.2-7.5v-2.6c0-1.5,0-3,0-4.5c0-0.4-0.1-0.8-0.4-1.1
			c-0.3-0.3-0.7-0.5-1.2-0.5c-0.8,0-1.6,0.6-1.6,1.6c0,1.5,0,2.9,0,4.4v2.5c-0.4,0-0.8,0-1.2,0c-2.5,0-5,0.2-7.4,0.7l0-7.2
			c0-0.4-0.2-0.8-0.4-1.1c-0.3-0.3-0.7-0.5-1.2-0.5c-0.8,0-1.6,0.5-1.6,1.6l0,8c-6,1.8-10.4,4.9-12.4,8.8c-1.5,2.8-1.6,6-0.4,9.4
			c2.4,6.7,8,8.9,12.7,10.1l-0.1,25.3c-6.2-1.4-10.2-5.3-12.4-11.9c-0.2-0.7-0.8-1.1-1.6-1.1c-0.6,0-1.1,0.3-1.4,0.7
			c-0.3,0.4-0.3,0.9-0.2,1.3c2.7,8.2,7.8,12.9,15.6,14.3l0,14.6c0,0.4,0.1,0.8,0.4,1.1c0.3,0.3,0.7,0.5,1.2,0.5
			c0.8,0,1.6-0.5,1.6-1.6l0-14.2c0.9,0.1,1.9,0.1,2.9,0.1c1.4,0,2.8-0.1,4.4-0.2c0.8-0.1,1.6-0.2,2.4-0.3l0,0.9
			c0.2,4.4,0.3,8.8,0.6,13.3c0,1,0.9,1.6,1.7,1.6c0.5,0,0.9-0.2,1.2-0.5c0.3-0.3,0.4-0.7,0.4-1.1c-0.2-5-0.4-9.9-0.6-14.9
			c3.5-1,9.6-3.3,12.4-8.3c1.5-2.6,1.8-5.5,0.8-8.7C486.8,703.3,480.6,700.9,474.8,699.5z M475.5,724.5c-0.3-7.8-0.5-14.9-0.6-21.8
			c1.8,0.5,3.2,1.1,4.4,1.7c3.2,1.8,5.6,4.6,6.4,7.5c0.6,2.2,0.2,4.5-1,6.5C482.8,721.4,479.8,723.3,475.5,724.5z M468.4,698.3
			c-1.9-0.3-3.9-0.7-5.7-1.1l0-23.2c2.7-0.7,5.7-1.1,8.5-1.1h0c0,9.3,0.1,17.8,0.2,25.9C470.5,698.6,469.4,698.5,468.4,698.3z
			 M462.7,700.4c1.3,0.2,2.6,0.4,3.9,0.7c1.7,0.3,3.3,0.5,4.9,0.8c0.1,7.5,0.4,15.1,0.7,23.2c-1.2,0.2-2.3,0.3-3.4,0.4
			c-1.1,0.1-2.1,0.1-3.1,0.1c-1,0-2.1,0-3-0.1L462.7,700.4z M459.5,675.1l0,21.2c-0.4-0.1-0.8-0.2-1.1-0.4c-3.1-1.2-7.1-4-8.5-7.8
			c-0.7-2.1-0.5-4.2,0.6-6.2C452.5,678.5,456.4,676.3,459.5,675.1z"/>
		<path fill="#2B2B2B" d="M439,658.2c-0.3,0-0.6,0.1-0.8,0.3c-10.9,7-18.2,17.9-20.4,30.6c-0.1,0.5,0,1,0.4,1.4
			c0.3,0.4,0.9,0.7,1.4,0.7c0.7,0,1.3-0.5,1.4-1.2c2.1-11.9,8.8-22.1,18.9-28.6c0.6-0.4,0.9-1.1,0.7-1.8
			C440.3,658.7,439.7,658.2,439,658.2z"/>
		<path fill="#242424" d="M445.5,657.5c0.3-0.3,0.4-0.7,0.4-1.1c0-0.8-0.5-1.6-1.6-1.6c-0.5,0-0.9,0.2-1.2,0.5
			c-0.3,0.3-0.4,0.7-0.4,1.1c0,0.8,0.5,1.6,1.6,1.6C444.8,658,445.2,657.8,445.5,657.5z"/>
	</g>
	<g>
		<path fill="#2B2B2B" d="M649.1,636.7c-5.2,0-10.3,0.7-15.2,2c-26.9,7.1-48.1,36.5-46.3,64.2c1.4,11.6,7.5,24.9,16.7,36.4
			c8.6,10.8,19.7,17.4,34,20.2c5.3,1.1,12.4,2.3,19.3,2.3c7.5,0,14.2-1.4,20.5-4.3c11.1-5.2,20.8-13.7,27.2-24.1
			C718,712.8,715.4,683,699,661C687.8,646,668.7,636.7,649.1,636.7z M707.5,721.4c-3.9,10.8-11.5,20.7-21.6,27.8
			c-8.9,6.3-18.3,9.3-28.5,9.3c-2.1,0-4.3-0.1-6.5-0.4c-13.9-1.6-28.3-4.7-39.1-15.4c-11-11-19.2-26.7-20.8-39.9
			c-1.4-21.9,13.5-47,33.9-57.2c7.3-3.7,15.8-5.6,24.4-5.6c15,0,29.7,5.6,40.4,15.5C707,671.5,714.9,700.5,707.5,721.4z"/>
		<path fill="#2B2B2B" d="M730,700.2c-1.7-22.4-7.2-39.4-17-51.9c-10.7-13.7-26.6-23.9-44.8-28.6c-6-1.4-12.1-2.1-18.1-2.1
			c-12,0-23.6,2.8-34.6,8.4c-11.1,5.6-30.9,17.8-39,36.1c-7.5,16.9-9.7,36.1-5.9,51.2c3.5,13.7,11.6,27.5,22.9,38.8
			c16.4,16.4,38.9,25.8,61.8,25.8l0,0c7.1,0,14.1-0.9,20.9-2.7C709.5,766.4,732.6,734.2,730,700.2z M727.1,708.7
			c-0.4,7.5-2.8,16.2-7.2,26.1c-6.6,14.8-17.6,26.1-31.8,32.7c-10.1,4.7-21,7.1-32.5,7.1c-17.8,0-35.5-5.9-49.9-16.5
			c-10.8-8-19.8-18.6-25.9-30.8c-7.6-15.1-9-30.5-4.4-49.9c2.8-11.8,6.5-19.7,12.5-26.3c5.6-6.2,12.8-12.1,21.3-17.5
			c13.2-8.3,27.1-12.6,41.5-12.6c5.6,0,11.3,0.7,16.9,1.9c15.6,4.1,29.3,12.2,39.7,23.5c9.2,10,15.1,23.4,18.1,40.9
			C726.3,693.7,727.4,701.4,727.1,708.7z"/>
		<path fill="#2B2B2B" d="M657.9,699.5c-0.1-8.2-0.2-16.9-0.2-26.4c3.7,0.4,8.7,1.9,11.4,6.2c0.3,0.5,0.8,0.8,1.3,0.8
			c0.6,0,1.2-0.4,1.5-0.9c0.3-0.5,0.2-1-0.1-1.5c-2.5-4-7.5-6.6-14.2-7.5v-2.6c0-1.5,0-3,0-4.5c0-0.4-0.1-0.8-0.4-1.1
			c-0.3-0.3-0.7-0.5-1.2-0.5c-0.8,0-1.6,0.6-1.7,1.6c0,1.5,0,2.9,0,4.4v2.5c-0.4,0-0.8,0-1.2,0c-2.5,0-5,0.2-7.4,0.7l0-7.2
			c0-0.4-0.2-0.8-0.4-1.1c-0.3-0.3-0.7-0.5-1.2-0.5c-0.8,0-1.6,0.5-1.6,1.6l0,8c-6,1.8-10.4,4.9-12.4,8.8c-1.5,2.8-1.6,6-0.4,9.4
			c2.4,6.7,8,8.9,12.7,10.1l-0.1,25.3c-6.1-1.4-10.2-5.3-12.4-11.9c-0.2-0.7-0.8-1.1-1.6-1.1c-0.6,0-1.1,0.3-1.4,0.7
			c-0.3,0.4-0.3,0.9-0.2,1.3c2.7,8.2,7.8,12.9,15.5,14.3l0,14.6c0,0.4,0.2,0.8,0.4,1.1c0.3,0.3,0.7,0.5,1.2,0.5
			c0.8,0,1.6-0.5,1.6-1.6l0-14.2c1,0.1,1.9,0.1,2.9,0.1c1.4,0,2.9-0.1,4.4-0.2c0.8-0.1,1.6-0.2,2.4-0.3l0,0.9
			c0.2,4.4,0.3,8.8,0.6,13.3c0.1,1,0.9,1.6,1.7,1.6c0.5,0,0.9-0.2,1.2-0.5c0.3-0.3,0.4-0.7,0.4-1.1c-0.2-5-0.4-9.9-0.6-14.9
			c3.5-1,9.6-3.3,12.4-8.3c1.5-2.6,1.7-5.5,0.8-8.7C669.8,703.3,663.7,700.9,657.9,699.5z M658.5,724.5c-0.3-7.8-0.5-14.9-0.6-21.8
			c1.8,0.5,3.2,1.1,4.4,1.7c3.2,1.8,5.6,4.6,6.4,7.5c0.6,2.2,0.2,4.5-1,6.5C665.9,721.4,662.9,723.3,658.5,724.5z M651.4,698.3
			c-1.9-0.3-3.9-0.7-5.7-1.1l0-23.2c2.8-0.7,5.7-1.1,8.6-1.1h0c0,9.3,0.1,17.8,0.2,25.9C653.5,698.6,652.5,698.5,651.4,698.3z
			 M645.8,700.4c1.3,0.2,2.6,0.4,3.9,0.7c1.7,0.3,3.3,0.5,4.9,0.8c0.2,7.5,0.4,15.1,0.7,23.2c-1.2,0.2-2.3,0.3-3.4,0.4
			c-1.1,0.1-2.1,0.1-3.1,0.1c-1,0-2.1,0-3.1-0.1L645.8,700.4z M642.6,675.1l0,21.2c-0.4-0.1-0.8-0.2-1.1-0.4c-3.1-1.2-7.1-4-8.5-7.8
			c-0.7-2.1-0.5-4.2,0.6-6.2C635.5,678.5,639.5,676.3,642.6,675.1z"/>
		<path fill="#2B2B2B" d="M622.1,658.2c-0.3,0-0.6,0.1-0.9,0.3c-10.9,7-18.2,17.9-20.4,30.6c-0.1,0.5,0,1,0.4,1.4
			c0.4,0.4,0.9,0.7,1.4,0.7c0.7,0,1.3-0.5,1.4-1.2c2.1-11.9,8.8-22.1,18.9-28.6c0.6-0.4,0.9-1.1,0.7-1.8
			C623.4,658.7,622.8,658.2,622.1,658.2z"/>
		<path fill="#242424" d="M628.5,657.5c0.3-0.3,0.4-0.7,0.4-1.1c0-0.8-0.5-1.6-1.6-1.6c-0.5,0-0.9,0.2-1.2,0.5
			c-0.3,0.3-0.4,0.7-0.4,1.1c0,0.8,0.5,1.6,1.6,1.6C627.8,658,628.2,657.8,628.5,657.5z"/>
	</g>
	<g>
		<path fill="#2B2B2B" d="M832.2,636.7c-5.2,0-10.3,0.7-15.2,2c-26.9,7.1-48.1,36.5-46.3,64.2c1.4,11.6,7.5,24.9,16.7,36.4
			c8.6,10.8,19.8,17.4,34,20.2c5.3,1.1,12.4,2.3,19.3,2.3c7.6,0,14.3-1.4,20.5-4.3c11.1-5.2,20.8-13.7,27.2-24.1
			C901,712.8,898.4,683,882,661C870.8,646,851.7,636.7,832.2,636.7z M890.5,721.4c-3.8,10.8-11.5,20.7-21.6,27.8
			c-8.9,6.3-18.3,9.3-28.6,9.3c-2.1,0-4.3-0.1-6.5-0.4c-13.9-1.6-28.3-4.7-39.1-15.4c-11.1-11-19.2-26.7-20.8-39.9
			c-1.4-21.9,13.5-47,33.9-57.2c7.3-3.7,15.8-5.6,24.4-5.6c15,0,29.7,5.6,40.4,15.5C890.1,671.5,897.9,700.5,890.5,721.4z"/>
		<path fill="#2B2B2B" d="M913.1,700.2c-1.7-22.4-7.2-39.4-17-51.9c-10.7-13.7-26.6-23.9-44.8-28.6c-6-1.4-12.1-2.1-18.1-2.1
			c-12,0-23.6,2.8-34.6,8.4c-11.1,5.6-30.9,17.8-39,36.1c-7.5,16.9-9.7,36.1-5.9,51.2c3.5,13.7,11.6,27.5,22.9,38.8
			c16.4,16.4,38.9,25.8,61.8,25.8l0,0c7.1,0,14.1-0.9,20.9-2.7C892.5,766.4,915.6,734.2,913.1,700.2z M910.1,708.7
			c-0.4,7.5-2.8,16.2-7.2,26.1c-6.6,14.8-17.6,26.1-31.8,32.7c-10.1,4.7-21,7.1-32.5,7.1c-17.8,0-35.5-5.9-49.9-16.5
			c-10.8-8-19.8-18.6-25.9-30.8c-7.6-15.1-9-30.5-4.4-49.9c2.8-11.8,6.5-19.7,12.5-26.3c5.6-6.2,12.8-12.1,21.3-17.5
			c13.2-8.3,27.1-12.6,41.5-12.6c5.6,0,11.3,0.7,16.9,1.9c15.6,4.1,29.3,12.2,39.7,23.5c9.2,10,15.1,23.4,18.1,40.9
			C909.4,693.7,910.5,701.4,910.1,708.7z"/>
		<path fill="#2B2B2B" d="M840.9,699.5c-0.1-8.2-0.2-16.9-0.2-26.4c3.8,0.4,8.7,1.9,11.4,6.2c0.3,0.5,0.8,0.8,1.3,0.8
			c0.6,0,1.2-0.4,1.5-0.9c0.3-0.5,0.2-1-0.1-1.5c-2.5-4-7.5-6.6-14.2-7.5v-2.6c0-1.5,0-3,0-4.5c0-0.4-0.2-0.8-0.4-1.1
			c-0.3-0.3-0.7-0.5-1.2-0.5c-0.8,0-1.6,0.6-1.6,1.6c0,1.5,0,2.9,0,4.4v2.5c-0.4,0-0.8,0-1.2,0c-2.5,0-5,0.2-7.4,0.7l0-7.2
			c0-0.4-0.2-0.8-0.4-1.1c-0.3-0.3-0.7-0.5-1.2-0.5c-0.8,0-1.6,0.5-1.6,1.6l0,8c-6,1.8-10.4,4.9-12.4,8.8c-1.5,2.8-1.6,6-0.4,9.4
			c2.4,6.7,8,8.9,12.7,10.1l-0.1,25.3c-6.1-1.4-10.2-5.3-12.4-11.9c-0.2-0.7-0.8-1.1-1.6-1.1c-0.6,0-1.1,0.3-1.4,0.7
			c-0.3,0.4-0.3,0.9-0.2,1.3c2.7,8.2,7.8,12.9,15.5,14.3l0,14.6c0,0.4,0.2,0.8,0.4,1.1c0.3,0.3,0.7,0.5,1.2,0.5
			c0.8,0,1.6-0.5,1.6-1.6l0-14.2c0.9,0.1,1.9,0.1,2.9,0.1c1.4,0,2.9-0.1,4.4-0.2c0.8-0.1,1.6-0.2,2.4-0.3l0,0.9
			c0.2,4.4,0.3,8.8,0.6,13.3c0.1,1,0.9,1.6,1.7,1.6c0.5,0,0.9-0.2,1.2-0.5c0.3-0.3,0.4-0.7,0.4-1.1c-0.2-5-0.4-9.9-0.6-14.9
			c3.5-1,9.6-3.3,12.4-8.3c1.5-2.6,1.8-5.5,0.9-8.7C852.9,703.3,846.7,700.9,840.9,699.5z M841.6,724.5c-0.3-7.8-0.5-14.9-0.6-21.8
			c1.8,0.5,3.2,1.1,4.4,1.7c3.2,1.8,5.6,4.6,6.4,7.5c0.6,2.2,0.3,4.5-1,6.5C848.9,721.4,845.9,723.3,841.6,724.5z M834.5,698.3
			c-1.9-0.3-3.9-0.7-5.7-1.1l0-23.2c2.8-0.7,5.7-1.1,8.6-1.1h0c0,9.3,0.1,17.8,0.2,25.9C836.6,698.6,835.5,698.5,834.5,698.3z
			 M828.8,700.4c1.3,0.2,2.6,0.4,3.9,0.7c1.7,0.3,3.3,0.5,4.9,0.8c0.1,7.5,0.4,15.1,0.7,23.2c-1.2,0.2-2.3,0.3-3.4,0.4
			c-1.1,0.1-2.1,0.1-3.1,0.1c-1,0-2.1,0-3-0.1L828.8,700.4z M825.6,675.1l0,21.2c-0.4-0.1-0.8-0.2-1.1-0.4c-3.1-1.2-7.2-4-8.5-7.8
			c-0.7-2.1-0.5-4.2,0.6-6.2C818.6,678.5,822.5,676.3,825.6,675.1z"/>
		<path fill="#2B2B2B" d="M805.1,658.2c-0.3,0-0.6,0.1-0.9,0.3c-10.9,7-18.2,17.9-20.4,30.6c-0.1,0.5,0,1,0.4,1.4
			c0.3,0.4,0.9,0.7,1.4,0.7c0.7,0,1.3-0.5,1.4-1.2c2.1-11.9,8.8-22.1,18.9-28.6c0.6-0.4,0.9-1.1,0.7-1.8
			C806.4,658.7,805.8,658.2,805.1,658.2z"/>
		<path fill="#242424" d="M811.6,657.5c0.3-0.3,0.4-0.7,0.4-1.1c0-0.8-0.5-1.6-1.6-1.6c-0.5,0-0.9,0.2-1.2,0.5
			c-0.3,0.3-0.4,0.7-0.4,1.1c0,0.8,0.5,1.6,1.6,1.6C810.9,658,811.3,657.8,811.6,657.5z"/>
	</g>
</g>
<g>
	<g>
		<path fill="#2B2B2B" d="M100,832.4c-5.2,0-10.3,0.7-15.2,2c-26.9,7.1-48.1,36.5-46.3,64.2c1.4,11.6,7.5,24.9,16.7,36.4
			c8.6,10.8,19.8,17.4,33.9,20.2c5.4,1.1,12.4,2.3,19.3,2.3c7.6,0,14.2-1.4,20.5-4.3c11.1-5.2,20.8-13.7,27.2-24.1
			c12.8-20.6,10.2-50.3-6.3-72.4C138.6,841.7,119.5,832.4,100,832.4z M158.3,917.1c-3.8,10.8-11.5,20.7-21.6,27.8
			c-8.9,6.3-18.3,9.3-28.6,9.3c-2.1,0-4.3-0.1-6.5-0.4c-13.9-1.6-28.3-4.7-39.1-15.4c-11.1-11-19.2-26.7-20.8-39.9
			c-1.4-21.9,13.5-47,33.9-57.2c7.4-3.7,15.8-5.6,24.4-5.6c15,0,29.7,5.6,40.4,15.5C157.9,867.2,165.8,896.2,158.3,917.1z"/>
		<path fill="#B2C217" d="M157.9,917.2c-3.8,10.8-11.5,20.7-21.6,27.8c-8.9,6.3-18.3,9.3-28.6,9.3c-2.1,0-4.3-0.1-6.5-0.4
			c-13.9-1.6-28.3-4.7-39.1-15.4c-11.1-11-19.2-26.7-20.8-39.9c-1.4-21.9,13.5-47,33.9-57.2c7.3-3.7,15.8-5.6,24.4-5.6
			c15,0,29.7,5.6,40.4,15.5C157.4,867.4,165.3,896.3,157.9,917.2z"/>
		<path fill="#2B2B2B" d="M180.9,895.9c-1.7-22.4-7.2-39.4-17-51.9c-10.7-13.7-26.6-23.9-44.8-28.6c-6-1.4-12.1-2.1-18.1-2.1
			c-12,0-23.6,2.8-34.6,8.4c-11.1,5.6-30.9,17.8-39,36.1c-7.5,16.9-9.7,36.1-5.9,51.2c3.5,13.7,11.6,27.5,22.9,38.8
			c16.4,16.4,38.9,25.8,61.8,25.8l0,0c7.1,0,14.1-0.9,20.9-2.7C160.3,962.2,183.4,929.9,180.9,895.9z M177.9,904.5
			c-0.4,7.5-2.8,16.2-7.2,26.1c-6.6,14.8-17.6,26.1-31.8,32.7c-10.1,4.7-21,7.1-32.5,7.1c-17.8,0-35.5-5.9-49.9-16.5
			c-10.8-8-19.8-18.6-25.9-30.8c-7.6-15.1-9-30.5-4.4-49.9c2.8-11.8,6.5-19.7,12.5-26.3c5.6-6.2,12.8-12.1,21.3-17.5
			c13.2-8.3,27.1-12.6,41.5-12.6c5.6,0,11.3,0.7,16.9,1.9c15.6,4.1,29.3,12.2,39.7,23.5c9.2,10,15.1,23.4,18.1,40.9
			C177.2,889.5,178.3,897.1,177.9,904.5z"/>
		<path fill="#2B2B2B" d="M108.7,895.2c-0.1-8.2-0.2-16.9-0.2-26.4c3.8,0.4,8.7,1.9,11.3,6.2c0.3,0.5,0.8,0.8,1.4,0.8
			c0.6,0,1.2-0.4,1.5-0.9c0.3-0.5,0.2-1-0.1-1.5c-2.5-4-7.5-6.6-14.2-7.5v-2.6c0-1.5,0-3,0-4.5c0-0.4-0.1-0.8-0.4-1.1
			c-0.3-0.3-0.7-0.5-1.2-0.5c-0.8,0-1.6,0.6-1.6,1.6c0,1.5,0,2.9,0,4.4v2.5c-0.4,0-0.8,0-1.1,0c-2.5,0-5,0.2-7.4,0.7l0-7.2
			c0-0.4-0.2-0.8-0.4-1.1c-0.3-0.3-0.7-0.5-1.2-0.5c-0.8,0-1.6,0.5-1.6,1.6l0,8c-6,1.8-10.4,4.9-12.4,8.8c-1.5,2.8-1.6,6-0.4,9.4
			c2.4,6.7,8,8.9,12.7,10.1l-0.1,25.3c-6.1-1.4-10.2-5.3-12.4-11.9c-0.2-0.7-0.8-1.1-1.6-1.1c-0.6,0-1.1,0.3-1.4,0.7
			c-0.3,0.4-0.3,0.9-0.2,1.3c2.7,8.2,7.8,12.9,15.6,14.3l0,14.6c0,0.4,0.2,0.8,0.4,1.1c0.3,0.3,0.7,0.5,1.2,0.5
			c0.8,0,1.6-0.5,1.6-1.6l0-14.2c1,0.1,1.9,0.1,2.9,0.1c1.4,0,2.9-0.1,4.4-0.2c0.8-0.1,1.6-0.2,2.4-0.3l0,0.9
			c0.2,4.4,0.3,8.8,0.6,13.3c0.1,1,0.9,1.6,1.7,1.6c0.5,0,0.9-0.2,1.2-0.5c0.3-0.3,0.4-0.7,0.4-1.1c-0.2-5-0.4-9.9-0.6-14.9
			c3.5-1,9.6-3.3,12.4-8.3c1.5-2.6,1.8-5.5,0.8-8.7C120.7,899,114.5,896.6,108.7,895.2z M109.4,920.2c-0.3-7.8-0.5-14.9-0.6-21.8
			c1.8,0.5,3.2,1.1,4.4,1.7c3.2,1.8,5.6,4.6,6.4,7.5c0.6,2.2,0.2,4.5-1,6.5C116.7,917.1,113.8,919.1,109.4,920.2z M102.3,894
			c-1.9-0.3-3.9-0.7-5.7-1.1l0-23.2c2.7-0.7,5.7-1.1,8.6-1.1h0c0,9.3,0.1,17.8,0.2,25.9C104.4,894.4,103.4,894.2,102.3,894z
			 M96.6,896.1c1.3,0.2,2.6,0.4,3.9,0.7c1.6,0.3,3.3,0.5,4.9,0.8c0.1,7.5,0.4,15.1,0.7,23.2c-1.2,0.2-2.3,0.3-3.4,0.4
			c-1.1,0.1-2.1,0.1-3.1,0.1c-1,0-2.1,0-3-0.1L96.6,896.1z M93.4,870.8l0,21.2c-0.4-0.1-0.8-0.2-1.1-0.4c-3.1-1.2-7.1-4-8.5-7.8
			c-0.7-2.1-0.5-4.2,0.7-6.2C86.4,874.2,90.3,872.1,93.4,870.8z"/>
		<path fill="#2B2B2B" d="M72.9,853.9c-0.3,0-0.6,0.1-0.9,0.3c-10.9,7-18.2,17.9-20.4,30.6c-0.1,0.5,0,1,0.3,1.4
			c0.4,0.4,0.9,0.7,1.4,0.7c0.7,0,1.3-0.5,1.4-1.2c2.1-11.9,8.8-22.1,18.9-28.6c0.6-0.4,0.9-1.1,0.7-1.8
			C74.2,854.5,73.6,853.9,72.9,853.9z"/>
		<path fill="#242424" d="M79.4,853.2c0.2-0.3,0.4-0.7,0.4-1.1c0-0.8-0.5-1.6-1.6-1.6c-0.5,0-0.9,0.2-1.2,0.5
			c-0.2,0.3-0.4,0.7-0.4,1.1c0,0.8,0.5,1.6,1.6,1.6C78.7,853.8,79.1,853.6,79.4,853.2z"/>
	</g>
	<g>
		<path fill="#2B2B2B" d="M283.1,832.4c-5.2,0-10.3,0.7-15.2,2c-26.9,7.1-48.1,36.5-46.3,64.2c1.4,11.6,7.5,24.9,16.7,36.4
			c8.6,10.8,19.8,17.4,34,20.2c5.3,1.1,12.4,2.3,19.3,2.3c7.6,0,14.2-1.4,20.5-4.3c11.1-5.2,20.8-13.7,27.2-24.1
			c12.8-20.6,10.2-50.3-6.3-72.4C321.7,841.7,302.6,832.4,283.1,832.4z M341.4,917.1c-3.8,10.8-11.5,20.7-21.6,27.8
			c-8.9,6.3-18.3,9.3-28.6,9.3c-2.1,0-4.3-0.1-6.5-0.4c-13.9-1.6-28.3-4.7-39.1-15.4c-11.1-11-19.2-26.7-20.9-39.9
			c-1.4-21.9,13.5-47,33.9-57.2c7.3-3.7,15.8-5.6,24.4-5.6c15,0,29.7,5.6,40.4,15.5C340.9,867.2,348.8,896.2,341.4,917.1z"/>
		<path fill="#2B2B2B" d="M363.9,895.9c-1.7-22.4-7.3-39.4-17-51.9c-10.7-13.7-26.6-23.9-44.8-28.6c-6-1.4-12.1-2.1-18.1-2.1
			c-12,0-23.6,2.8-34.6,8.4c-11.1,5.6-30.9,17.8-39,36.1c-7.5,16.9-9.7,36.1-5.9,51.2c3.5,13.7,11.6,27.5,22.9,38.8
			c16.4,16.4,38.9,25.8,61.8,25.8l0,0c7.1,0,14.1-0.9,20.9-2.7C343.4,962.2,366.5,929.9,363.9,895.9z M360.9,904.5
			c-0.4,7.5-2.8,16.2-7.2,26.1c-6.6,14.8-17.6,26.1-31.8,32.7c-10.1,4.7-21,7.1-32.5,7.1c-17.8,0-35.5-5.9-49.9-16.5
			c-10.8-8-19.8-18.6-25.9-30.8c-7.6-15.1-9-30.5-4.4-49.9c2.8-11.8,6.5-19.7,12.5-26.3c5.6-6.2,12.8-12.1,21.3-17.5
			c13.2-8.3,27.1-12.6,41.5-12.6c5.6,0,11.3,0.7,16.9,1.9c15.6,4.1,29.3,12.2,39.7,23.5c9.2,10,15.1,23.4,18.1,40.9
			C360.2,889.5,361.3,897.1,360.9,904.5z"/>
		<path fill="#2B2B2B" d="M291.8,895.2c-0.1-8.2-0.2-16.9-0.2-26.4c3.8,0.4,8.7,1.9,11.4,6.2c0.3,0.5,0.8,0.8,1.3,0.8
			c0.6,0,1.2-0.4,1.5-0.9c0.3-0.5,0.2-1-0.1-1.5c-2.5-4-7.5-6.6-14.2-7.5v-2.6c0-1.5,0-3,0-4.5c0-0.4-0.1-0.8-0.4-1.1
			c-0.3-0.3-0.7-0.5-1.2-0.5c-0.8,0-1.6,0.6-1.6,1.6c0,1.5,0,2.9,0,4.4v2.5c-0.4,0-0.8,0-1.1,0c-2.5,0-5,0.2-7.4,0.7l0-7.2
			c0-0.4-0.1-0.8-0.4-1.1c-0.3-0.3-0.7-0.5-1.2-0.5c-0.8,0-1.6,0.5-1.6,1.6l0,8c-6,1.8-10.4,4.9-12.4,8.8c-1.5,2.8-1.6,6-0.4,9.4
			c2.4,6.7,8,8.9,12.7,10.1l-0.1,25.3c-6.1-1.4-10.2-5.3-12.4-11.9c-0.2-0.7-0.8-1.1-1.6-1.1c-0.6,0-1.1,0.3-1.4,0.7
			c-0.3,0.4-0.3,0.9-0.2,1.3c2.7,8.2,7.8,12.9,15.6,14.3l0,14.6c0,0.4,0.2,0.8,0.4,1.1c0.3,0.3,0.7,0.5,1.2,0.5
			c0.8,0,1.6-0.5,1.6-1.6l0-14.2c1,0.1,1.9,0.1,2.9,0.1c1.4,0,2.9-0.1,4.4-0.2c0.8-0.1,1.6-0.2,2.4-0.3l0,0.9
			c0.2,4.4,0.4,8.8,0.6,13.3c0.1,1,0.9,1.6,1.7,1.6c0.5,0,0.9-0.2,1.2-0.5c0.3-0.3,0.4-0.7,0.4-1.1c-0.2-5-0.4-9.9-0.6-14.9
			c3.5-1,9.6-3.3,12.4-8.3c1.5-2.6,1.8-5.5,0.8-8.7C303.7,899,297.6,896.6,291.8,895.2z M292.4,920.2c-0.3-7.8-0.5-14.9-0.6-21.8
			c1.8,0.5,3.2,1.1,4.4,1.7c3.2,1.8,5.6,4.6,6.4,7.5c0.6,2.2,0.3,4.5-1,6.5C299.8,917.1,296.8,919.1,292.4,920.2z M285.4,894
			c-1.9-0.3-3.8-0.7-5.7-1.1l0-23.2c2.7-0.7,5.7-1.1,8.5-1.1l0,0c0,9.3,0.1,17.8,0.2,25.9C287.4,894.4,286.4,894.2,285.4,894z
			 M279.7,896.1c1.3,0.2,2.6,0.4,3.9,0.7c1.6,0.3,3.3,0.5,4.9,0.8c0.1,7.5,0.4,15.1,0.7,23.2c-1.1,0.2-2.3,0.3-3.4,0.4
			c-1,0.1-2.1,0.1-3.1,0.1c-1,0-2.1,0-3-0.1L279.7,896.1z M276.5,870.8l0,21.2c-0.4-0.1-0.8-0.2-1.1-0.4c-3.1-1.2-7.1-4-8.5-7.8
			c-0.7-2.1-0.5-4.2,0.6-6.2C269.4,874.2,273.4,872.1,276.5,870.8z"/>
		<path fill="#2B2B2B" d="M256,853.9c-0.3,0-0.6,0.1-0.8,0.3c-10.9,7-18.2,17.9-20.4,30.6c-0.1,0.5,0,1,0.4,1.4
			c0.3,0.4,0.9,0.7,1.4,0.7c0.7,0,1.3-0.5,1.4-1.2c2.1-11.9,8.8-22.1,18.9-28.6c0.6-0.4,0.9-1.1,0.7-1.8
			C257.3,854.5,256.7,853.9,256,853.9z"/>
		<path fill="#242424" d="M262.4,853.2c0.2-0.3,0.4-0.7,0.4-1.1c0-0.8-0.5-1.6-1.6-1.6c-0.5,0-0.9,0.2-1.2,0.5
			c-0.2,0.3-0.4,0.7-0.4,1.1c0,0.8,0.5,1.6,1.6,1.6C261.7,853.8,262.1,853.6,262.4,853.2z"/>
	</g>
	<g>
		<path fill="#2B2B2B" d="M466.1,832.4c-5.2,0-10.3,0.7-15.2,2c-26.9,7.1-48.1,36.5-46.3,64.2c1.4,11.6,7.5,24.9,16.7,36.4
			c8.6,10.8,19.7,17.4,33.9,20.2c5.4,1.1,12.4,2.3,19.3,2.3c7.6,0,14.3-1.4,20.5-4.3c11.1-5.2,20.8-13.7,27.2-24.1
			c12.7-20.6,10.2-50.3-6.3-72.4C504.7,841.7,485.6,832.4,466.1,832.4z M524.4,917.1c-3.8,10.8-11.5,20.7-21.6,27.8
			c-8.9,6.3-18.3,9.3-28.6,9.3c-2.1,0-4.3-0.1-6.5-0.4c-13.9-1.6-28.3-4.7-39.1-15.4c-11-11-19.2-26.7-20.8-39.9
			c-1.4-21.9,13.5-47,33.9-57.2c7.3-3.7,15.8-5.6,24.4-5.6c14.9,0,29.7,5.6,40.4,15.5C524,867.2,531.8,896.2,524.4,917.1z"/>
		<path fill="#2B2B2B" d="M547,895.9c-1.7-22.4-7.2-39.4-17-51.9c-10.7-13.7-26.6-23.9-44.8-28.6c-6-1.4-12.1-2.1-18.1-2.1
			c-12,0-23.6,2.8-34.6,8.4c-11.1,5.6-30.9,17.8-39,36.1c-7.5,16.9-9.7,36.1-5.9,51.2c3.5,13.7,11.6,27.5,22.9,38.8
			c16.4,16.4,38.9,25.8,61.8,25.8l0,0c7.1,0,14.1-0.9,20.9-2.7C526.4,962.2,549.5,929.9,547,895.9z M544,904.5
			c-0.4,7.5-2.8,16.2-7.2,26.1c-6.6,14.8-17.6,26.1-31.8,32.7c-10.1,4.7-21,7.1-32.5,7.1c-17.8,0-35.5-5.9-49.9-16.5
			c-10.8-8-19.8-18.6-25.9-30.8c-7.6-15.1-9-30.5-4.4-49.9c2.8-11.8,6.5-19.7,12.5-26.3c5.6-6.2,12.8-12.1,21.3-17.5
			c13.2-8.3,27.1-12.6,41.5-12.6c5.6,0,11.3,0.7,16.9,1.9c15.6,4.1,29.3,12.2,39.7,23.5c9.2,10,15.1,23.4,18.1,40.9
			C543.3,889.5,544.4,897.1,544,904.5z"/>
		<path fill="#2B2B2B" d="M474.8,895.2c-0.1-8.2-0.2-16.9-0.2-26.4c3.8,0.4,8.7,1.9,11.4,6.2c0.3,0.5,0.8,0.8,1.3,0.8
			c0.6,0,1.2-0.4,1.5-0.9c0.3-0.5,0.2-1-0.1-1.5c-2.5-4-7.5-6.6-14.2-7.5v-2.6c0-1.5,0-3,0-4.5c0-0.4-0.1-0.8-0.4-1.1
			c-0.3-0.3-0.7-0.5-1.2-0.5c-0.8,0-1.6,0.6-1.6,1.6c0,1.5,0,2.9,0,4.4v2.5c-0.4,0-0.8,0-1.2,0c-2.5,0-5,0.2-7.4,0.7l0-7.2
			c0-0.4-0.2-0.8-0.4-1.1c-0.3-0.3-0.7-0.5-1.2-0.5c-0.8,0-1.6,0.5-1.6,1.6l0,8c-6,1.8-10.4,4.9-12.4,8.8c-1.5,2.8-1.6,6-0.4,9.4
			c2.4,6.7,8,8.9,12.7,10.1l-0.1,25.3c-6.2-1.4-10.2-5.3-12.4-11.9c-0.2-0.7-0.8-1.1-1.6-1.1c-0.6,0-1.1,0.3-1.4,0.7
			c-0.3,0.4-0.3,0.9-0.2,1.3c2.7,8.2,7.8,12.9,15.6,14.3l0,14.6c0,0.4,0.1,0.8,0.4,1.1c0.3,0.3,0.7,0.5,1.2,0.5
			c0.8,0,1.6-0.5,1.6-1.6l0-14.2c0.9,0.1,1.9,0.1,2.9,0.1c1.4,0,2.8-0.1,4.4-0.2c0.8-0.1,1.6-0.2,2.4-0.3l0,0.9
			c0.2,4.4,0.3,8.8,0.6,13.3c0,1,0.9,1.6,1.7,1.6c0.5,0,0.9-0.2,1.2-0.5c0.3-0.3,0.4-0.7,0.4-1.1c-0.2-5-0.4-9.9-0.6-14.9
			c3.5-1,9.6-3.3,12.4-8.3c1.5-2.6,1.8-5.5,0.8-8.7C486.8,899,480.6,896.6,474.8,895.2z M475.5,920.2c-0.3-7.8-0.5-14.9-0.6-21.8
			c1.8,0.5,3.2,1.1,4.4,1.7c3.2,1.8,5.6,4.6,6.4,7.5c0.6,2.2,0.2,4.5-1,6.5C482.8,917.1,479.8,919.1,475.5,920.2z M468.4,894
			c-1.9-0.3-3.9-0.7-5.7-1.1l0-23.2c2.7-0.7,5.7-1.1,8.5-1.1h0c0,9.3,0.1,17.8,0.2,25.9C470.5,894.4,469.4,894.2,468.4,894z
			 M462.7,896.1c1.3,0.2,2.6,0.4,3.9,0.7c1.7,0.3,3.3,0.5,4.9,0.8c0.1,7.5,0.4,15.1,0.7,23.2c-1.2,0.2-2.3,0.3-3.4,0.4
			c-1.1,0.1-2.1,0.1-3.1,0.1c-1,0-2.1,0-3-0.1L462.7,896.1z M459.5,870.8l0,21.2c-0.4-0.1-0.8-0.2-1.1-0.4c-3.1-1.2-7.1-4-8.5-7.8
			c-0.7-2.1-0.5-4.2,0.6-6.2C452.5,874.2,456.4,872.1,459.5,870.8z"/>
		<path fill="#2B2B2B" d="M439,853.9c-0.3,0-0.6,0.1-0.8,0.3c-10.9,7-18.2,17.9-20.4,30.6c-0.1,0.5,0,1,0.4,1.4
			c0.3,0.4,0.9,0.7,1.4,0.7c0.7,0,1.3-0.5,1.4-1.2c2.1-11.9,8.8-22.1,18.9-28.6c0.6-0.4,0.9-1.1,0.7-1.8
			C440.3,854.5,439.7,853.9,439,853.9z"/>
		<path fill="#242424" d="M445.5,853.2c0.3-0.3,0.4-0.7,0.4-1.1c0-0.8-0.5-1.6-1.6-1.6c-0.5,0-0.9,0.2-1.2,0.5
			c-0.3,0.3-0.4,0.7-0.4,1.1c0,0.8,0.5,1.6,1.6,1.6C444.8,853.8,445.2,853.6,445.5,853.2z"/>
	</g>
	<g>
		<path fill="#2B2B2B" d="M649.1,832.4c-5.2,0-10.3,0.7-15.2,2c-26.9,7.1-48.1,36.5-46.3,64.2c1.4,11.6,7.5,24.9,16.7,36.4
			c8.6,10.8,19.7,17.4,34,20.2c5.3,1.1,12.4,2.3,19.3,2.3c7.5,0,14.2-1.4,20.5-4.3c11.1-5.2,20.8-13.7,27.2-24.1
			c12.7-20.6,10.2-50.3-6.3-72.4C687.8,841.7,668.7,832.4,649.1,832.4z M707.5,917.1c-3.9,10.8-11.5,20.7-21.6,27.8
			c-8.9,6.3-18.3,9.3-28.5,9.3c-2.1,0-4.3-0.1-6.5-0.4c-13.9-1.6-28.3-4.7-39.1-15.4c-11-11-19.2-26.7-20.8-39.9
			c-1.4-21.9,13.5-47,33.9-57.2c7.3-3.7,15.8-5.6,24.4-5.6c15,0,29.7,5.6,40.4,15.5C707,867.2,714.9,896.2,707.5,917.1z"/>
		<path fill="#2B2B2B" d="M730,895.9c-1.7-22.4-7.2-39.4-17-51.9c-10.7-13.7-26.6-23.9-44.8-28.6c-6-1.4-12.1-2.1-18.1-2.1
			c-12,0-23.6,2.8-34.6,8.4c-11.1,5.6-30.9,17.8-39,36.1c-7.5,16.9-9.7,36.1-5.9,51.2c3.5,13.7,11.6,27.5,22.9,38.8
			c16.4,16.4,38.9,25.8,61.8,25.8l0,0c7.1,0,14.1-0.9,20.9-2.7C709.5,962.2,732.6,929.9,730,895.9z M727.1,904.5
			c-0.4,7.5-2.8,16.2-7.2,26.1c-6.6,14.8-17.6,26.1-31.8,32.7c-10.1,4.7-21,7.1-32.5,7.1c-17.8,0-35.5-5.9-49.9-16.5
			c-10.8-8-19.8-18.6-25.9-30.8c-7.6-15.1-9-30.5-4.4-49.9c2.8-11.8,6.5-19.7,12.5-26.3c5.6-6.2,12.8-12.1,21.3-17.5
			c13.2-8.3,27.1-12.6,41.5-12.6c5.6,0,11.3,0.7,16.9,1.9c15.6,4.1,29.3,12.2,39.7,23.5c9.2,10,15.1,23.4,18.1,40.9
			C726.3,889.5,727.4,897.1,727.1,904.5z"/>
		<path fill="#2B2B2B" d="M657.9,895.2c-0.1-8.2-0.2-16.9-0.2-26.4c3.7,0.4,8.7,1.9,11.4,6.2c0.3,0.5,0.8,0.8,1.3,0.8
			c0.6,0,1.2-0.4,1.5-0.9c0.3-0.5,0.2-1-0.1-1.5c-2.5-4-7.5-6.6-14.2-7.5v-2.6c0-1.5,0-3,0-4.5c0-0.4-0.1-0.8-0.4-1.1
			c-0.3-0.3-0.7-0.5-1.2-0.5c-0.8,0-1.6,0.6-1.7,1.6c0,1.5,0,2.9,0,4.4v2.5c-0.4,0-0.8,0-1.2,0c-2.5,0-5,0.2-7.4,0.7l0-7.2
			c0-0.4-0.2-0.8-0.4-1.1c-0.3-0.3-0.7-0.5-1.2-0.5c-0.8,0-1.6,0.5-1.6,1.6l0,8c-6,1.8-10.4,4.9-12.4,8.8c-1.5,2.8-1.6,6-0.4,9.4
			c2.4,6.7,8,8.9,12.7,10.1l-0.1,25.3c-6.1-1.4-10.2-5.3-12.4-11.9c-0.2-0.7-0.8-1.1-1.6-1.1c-0.6,0-1.1,0.3-1.4,0.7
			c-0.3,0.4-0.3,0.9-0.2,1.3c2.7,8.2,7.8,12.9,15.5,14.3l0,14.6c0,0.4,0.2,0.8,0.4,1.1c0.3,0.3,0.7,0.5,1.2,0.5
			c0.8,0,1.6-0.5,1.6-1.6l0-14.2c1,0.1,1.9,0.1,2.9,0.1c1.4,0,2.9-0.1,4.4-0.2c0.8-0.1,1.6-0.2,2.4-0.3l0,0.9
			c0.2,4.4,0.3,8.8,0.6,13.3c0.1,1,0.9,1.6,1.7,1.6c0.5,0,0.9-0.2,1.2-0.5c0.3-0.3,0.4-0.7,0.4-1.1c-0.2-5-0.4-9.9-0.6-14.9
			c3.5-1,9.6-3.3,12.4-8.3c1.5-2.6,1.7-5.5,0.8-8.7C669.8,899,663.7,896.6,657.9,895.2z M658.5,920.2c-0.3-7.8-0.5-14.9-0.6-21.8
			c1.8,0.5,3.2,1.1,4.4,1.7c3.2,1.8,5.6,4.6,6.4,7.5c0.6,2.2,0.2,4.5-1,6.5C665.9,917.1,662.9,919.1,658.5,920.2z M651.4,894
			c-1.9-0.3-3.9-0.7-5.7-1.1l0-23.2c2.8-0.7,5.7-1.1,8.6-1.1h0c0,9.3,0.1,17.8,0.2,25.9C653.5,894.4,652.5,894.2,651.4,894z
			 M645.8,896.1c1.3,0.2,2.6,0.4,3.9,0.7c1.7,0.3,3.3,0.5,4.9,0.8c0.2,7.5,0.4,15.1,0.7,23.2c-1.2,0.2-2.3,0.3-3.4,0.4
			c-1.1,0.1-2.1,0.1-3.1,0.1c-1,0-2.1,0-3.1-0.1L645.8,896.1z M642.6,870.8l0,21.2c-0.4-0.1-0.8-0.2-1.1-0.4c-3.1-1.2-7.1-4-8.5-7.8
			c-0.7-2.1-0.5-4.2,0.6-6.2C635.5,874.2,639.5,872.1,642.6,870.8z"/>
		<path fill="#2B2B2B" d="M622.1,853.9c-0.3,0-0.6,0.1-0.9,0.3c-10.9,7-18.2,17.9-20.4,30.6c-0.1,0.5,0,1,0.4,1.4
			c0.4,0.4,0.9,0.7,1.4,0.7c0.7,0,1.3-0.5,1.4-1.2c2.1-11.9,8.8-22.1,18.9-28.6c0.6-0.4,0.9-1.1,0.7-1.8
			C623.4,854.5,622.8,853.9,622.1,853.9z"/>
		<path fill="#242424" d="M628.5,853.2c0.3-0.3,0.4-0.7,0.4-1.1c0-0.8-0.5-1.6-1.6-1.6c-0.5,0-0.9,0.2-1.2,0.5
			c-0.3,0.3-0.4,0.7-0.4,1.1c0,0.8,0.5,1.6,1.6,1.6C627.8,853.8,628.2,853.6,628.5,853.2z"/>
	</g>
	<g>
		<path fill="#2B2B2B" d="M832.2,832.4c-5.2,0-10.3,0.7-15.2,2c-26.9,7.1-48.1,36.5-46.3,64.2c1.4,11.6,7.5,24.9,16.7,36.4
			c8.6,10.8,19.8,17.4,34,20.2c5.3,1.1,12.4,2.3,19.3,2.3c7.6,0,14.3-1.4,20.5-4.3c11.1-5.2,20.8-13.7,27.2-24.1
			c12.7-20.6,10.2-50.3-6.3-72.4C870.8,841.7,851.7,832.4,832.2,832.4z M890.5,917.1c-3.8,10.8-11.5,20.7-21.6,27.8
			c-8.9,6.3-18.3,9.3-28.6,9.3c-2.1,0-4.3-0.1-6.5-0.4c-13.9-1.6-28.3-4.7-39.1-15.4c-11.1-11-19.2-26.7-20.8-39.9
			c-1.4-21.9,13.5-47,33.9-57.2c7.3-3.7,15.8-5.6,24.4-5.6c15,0,29.7,5.6,40.4,15.5C890.1,867.2,897.9,896.2,890.5,917.1z"/>
		<path fill="#2B2B2B" d="M913.1,895.9c-1.7-22.4-7.2-39.4-17-51.9c-10.7-13.7-26.6-23.9-44.8-28.6c-6-1.4-12.1-2.1-18.1-2.1
			c-12,0-23.6,2.8-34.6,8.4c-11.1,5.6-30.9,17.8-39,36.1c-7.5,16.9-9.7,36.1-5.9,51.2c3.5,13.7,11.6,27.5,22.9,38.8
			c16.4,16.4,38.9,25.8,61.8,25.8l0,0c7.1,0,14.1-0.9,20.9-2.7C892.5,962.2,915.6,929.9,913.1,895.9z M910.1,904.5
			c-0.4,7.5-2.8,16.2-7.2,26.1c-6.6,14.8-17.6,26.1-31.8,32.7c-10.1,4.7-21,7.1-32.5,7.1c-17.8,0-35.5-5.9-49.9-16.5
			c-10.8-8-19.8-18.6-25.9-30.8c-7.6-15.1-9-30.5-4.4-49.9c2.8-11.8,6.5-19.7,12.5-26.3c5.6-6.2,12.8-12.1,21.3-17.5
			c13.2-8.3,27.1-12.6,41.5-12.6c5.6,0,11.3,0.7,16.9,1.9c15.6,4.1,29.3,12.2,39.7,23.5c9.2,10,15.1,23.4,18.1,40.9
			C909.4,889.5,910.5,897.1,910.1,904.5z"/>
		<path fill="#2B2B2B" d="M840.9,895.2c-0.1-8.2-0.2-16.9-0.2-26.4c3.8,0.4,8.7,1.9,11.4,6.2c0.3,0.5,0.8,0.8,1.3,0.8
			c0.6,0,1.2-0.4,1.5-0.9c0.3-0.5,0.2-1-0.1-1.5c-2.5-4-7.5-6.6-14.2-7.5v-2.6c0-1.5,0-3,0-4.5c0-0.4-0.2-0.8-0.4-1.1
			c-0.3-0.3-0.7-0.5-1.2-0.5c-0.8,0-1.6,0.6-1.6,1.6c0,1.5,0,2.9,0,4.4v2.5c-0.4,0-0.8,0-1.2,0c-2.5,0-5,0.2-7.4,0.7l0-7.2
			c0-0.4-0.2-0.8-0.4-1.1c-0.3-0.3-0.7-0.5-1.2-0.5c-0.8,0-1.6,0.5-1.6,1.6l0,8c-6,1.8-10.4,4.9-12.4,8.8c-1.5,2.8-1.6,6-0.4,9.4
			c2.4,6.7,8,8.9,12.7,10.1l-0.1,25.3c-6.1-1.4-10.2-5.3-12.4-11.9c-0.2-0.7-0.8-1.1-1.6-1.1c-0.6,0-1.1,0.3-1.4,0.7
			c-0.3,0.4-0.3,0.9-0.2,1.3c2.7,8.2,7.8,12.9,15.5,14.3l0,14.6c0,0.4,0.2,0.8,0.4,1.1c0.3,0.3,0.7,0.5,1.2,0.5
			c0.8,0,1.6-0.5,1.6-1.6l0-14.2c0.9,0.1,1.9,0.1,2.9,0.1c1.4,0,2.9-0.1,4.4-0.2c0.8-0.1,1.6-0.2,2.4-0.3l0,0.9
			c0.2,4.4,0.3,8.8,0.6,13.3c0.1,1,0.9,1.6,1.7,1.6c0.5,0,0.9-0.2,1.2-0.5c0.3-0.3,0.4-0.7,0.4-1.1c-0.2-5-0.4-9.9-0.6-14.9
			c3.5-1,9.6-3.3,12.4-8.3c1.5-2.6,1.8-5.5,0.9-8.7C852.9,899,846.7,896.6,840.9,895.2z M841.6,920.2c-0.3-7.8-0.5-14.9-0.6-21.8
			c1.8,0.5,3.2,1.1,4.4,1.7c3.2,1.8,5.6,4.6,6.4,7.5c0.6,2.2,0.3,4.5-1,6.5C848.9,917.1,845.9,919.1,841.6,920.2z M834.5,894
			c-1.9-0.3-3.9-0.7-5.7-1.1l0-23.2c2.8-0.7,5.7-1.1,8.6-1.1h0c0,9.3,0.1,17.8,0.2,25.9C836.6,894.4,835.5,894.2,834.5,894z
			 M828.8,896.1c1.3,0.2,2.6,0.4,3.9,0.7c1.7,0.3,3.3,0.5,4.9,0.8c0.1,7.5,0.4,15.1,0.7,23.2c-1.2,0.2-2.3,0.3-3.4,0.4
			c-1.1,0.1-2.1,0.1-3.1,0.1c-1,0-2.1,0-3-0.1L828.8,896.1z M825.6,870.8l0,21.2c-0.4-0.1-0.8-0.2-1.1-0.4c-3.1-1.2-7.2-4-8.5-7.8
			c-0.7-2.1-0.5-4.2,0.6-6.2C818.6,874.2,822.5,872.1,825.6,870.8z"/>
		<path fill="#2B2B2B" d="M805.1,853.9c-0.3,0-0.6,0.1-0.9,0.3c-10.9,7-18.2,17.9-20.4,30.6c-0.1,0.5,0,1,0.4,1.4
			c0.3,0.4,0.9,0.7,1.4,0.7c0.7,0,1.3-0.5,1.4-1.2c2.1-11.9,8.8-22.1,18.9-28.6c0.6-0.4,0.9-1.1,0.7-1.8
			C806.4,854.5,805.8,853.9,805.1,853.9z"/>
		<path fill="#242424" d="M811.6,853.2c0.3-0.3,0.4-0.7,0.4-1.1c0-0.8-0.5-1.6-1.6-1.6c-0.5,0-0.9,0.2-1.2,0.5
			c-0.3,0.3-0.4,0.7-0.4,1.1c0,0.8,0.5,1.6,1.6,1.6C810.9,853.8,811.3,853.6,811.6,853.2z"/>
	</g>
</g>
</svg>
