{
  "project_info": {
    "project_number": "63853790814",
    "firebase_url": "https://presteoapp-c12fb.firebaseio.com",
    "project_id": "presteoapp-c12fb",
    "storage_bucket": "presteoapp-c12fb.appspot.com"
  },
  "client": [
    {
      "client_info": {
        "mobilesdk_app_id": "1:63853790814:android:8443d136427039c9",
        "android_client_info": {
          "package_name": "co.com.intrasoft.presteo"
        }
      },
      "oauth_client": [
        {
          "client_id": "63853790814-o87d4s9etefmf84n3vrg0t0ns07hov14.apps.googleusercontent.com",
          "client_type": 3
        }
      ],
      "api_key": [
        {
          "current_key": "AIzaSyCudVyLhls77Jx8DA0QQoquOglk-XGlTSw"
        }
      ],
      "services": {
        "analytics_service": {
          "status": 1
        },
        "appinvite_service": {
          "status": 1,
          "other_platform_oauth_client": []
        },
        "ads_service": {
          "status": 2
        }
      }
    }
  ],
  "configuration_version": "1"
}